EESchema Schematic File Version 4
EELAYER 30 0
EELAYER END
$Descr A4 11693 8268
encoding utf-8
Sheet 1 1
Title "rayStack 9-axis IMU"
Date ""
Rev "0.1"
Comp "Raytrails, Pvt."
Comment1 "Copyright (c) 2020. All rights reserved."
Comment2 "License: BSD"
Comment3 ""
Comment4 ""
$EndDescr
$Comp
L power:GND #PWR02
U 1 1 5E8979CA
P 1350 6550
F 0 "#PWR02" H 1350 6300 50  0001 C CNN
F 1 "GND" V 1350 6350 50  0000 C CNN
F 2 "" H 1350 6550 50  0001 C CNN
F 3 "" H 1350 6550 50  0001 C CNN
	1    1350 6550
	0    1    1    0   
$EndComp
Text Label 1750 7150 2    50   ~ 0
USB_D-
Text Label 1750 7050 2    50   ~ 0
USB_D+
Text Notes 2800 7450 0    50   ~ 0
SCLK
Text Notes 2800 7350 0    50   ~ 0
MISO
Text Notes 2800 7250 0    50   ~ 0
MOSI
Text Notes 2800 7150 0    50   ~ 0
SS
Text Notes 1200 7450 2    50   ~ 0
SCL
Text Notes 1200 7350 2    50   ~ 0
SDA
Text Notes 1200 6050 2    50   ~ 0
AIN
Text Notes 1200 6150 2    50   ~ 0
AIN
Text Notes 1200 6250 2    50   ~ 0
AIN
Wire Wire Line
	2650 6950 2250 6950
$Comp
L Connector_Generic:Conn_02x15_Counter_Clockwise F.J1
U 1 1 5E881662
P 1950 6750
F 0 "F.J1" H 2000 7667 50  0000 C CNN
F 1 "DF40S-30" H 2000 7576 50  0000 C CNN
F 2 "rayStack:Hirose_DF40_C_30DS_P0.4_Vertical" H 1950 6750 50  0001 C CNN
F 3 "~" H 1950 6750 50  0001 C CNN
	1    1950 6750
	1    0    0    -1  
$EndComp
Wire Wire Line
	1750 6950 1350 6950
Text Label 1750 6450 2    50   ~ 0
RESET
Text Label 2250 7250 0    50   ~ 0
GPIO_M
Text Label 1750 7250 2    50   ~ 0
GPIO_H
Text Label 1750 7350 2    50   ~ 0
GPIO_I
Text Label 1750 7450 2    50   ~ 0
GPIO_J
Text Label 2250 7450 0    50   ~ 0
GPIO_K
Text Label 2250 7350 0    50   ~ 0
GPIO_L
Text Label 1750 6150 2    50   ~ 0
GPIO_B
Text Label 1750 6250 2    50   ~ 0
GPIO_C
Text Label 1750 6350 2    50   ~ 0
CUSTOM_D
Text Label 2250 7150 0    50   ~ 0
GPIO_N
Wire Wire Line
	2250 6550 2650 6550
$Comp
L power:VBUS #PWR09
U 1 1 5EB8EE2F
P 2650 6850
F 0 "#PWR09" H 2650 6700 50  0001 C CNN
F 1 "VBUS" V 2650 7000 50  0000 L CNN
F 2 "" H 2650 6850 50  0001 C CNN
F 3 "" H 2650 6850 50  0001 C CNN
	1    2650 6850
	0    1    1    0   
$EndComp
Wire Wire Line
	2650 6850 2250 6850
Wire Wire Line
	1350 6550 1750 6550
$Comp
L power:+2V8 #PWR08
U 1 1 5EB91478
P 2650 6750
F 0 "#PWR08" H 2650 6600 50  0001 C CNN
F 1 "+2V8" V 2650 6900 50  0000 L CNN
F 2 "" H 2650 6750 50  0001 C CNN
F 3 "" H 2650 6750 50  0001 C CNN
	1    2650 6750
	0    1    1    0   
$EndComp
Wire Wire Line
	2650 6750 2250 6750
$Comp
L power:VAA #PWR07
U 1 1 5EB92D5F
P 2650 6650
F 0 "#PWR07" H 2650 6500 50  0001 C CNN
F 1 "VAA" V 2650 6800 50  0000 L CNN
F 2 "" H 2650 6650 50  0001 C CNN
F 3 "" H 2650 6650 50  0001 C CNN
	1    2650 6650
	0    1    1    0   
$EndComp
Wire Wire Line
	2650 6650 2250 6650
$Comp
L power:GND #PWR05
U 1 1 5EB9F4B4
P 1350 6950
F 0 "#PWR05" H 1350 6700 50  0001 C CNN
F 1 "GND" V 1350 6750 50  0000 C CNN
F 2 "" H 1350 6950 50  0001 C CNN
F 3 "" H 1350 6950 50  0001 C CNN
	1    1350 6950
	0    1    1    0   
$EndComp
$Comp
L power:VAA #PWR01
U 1 1 5EB9FBB2
P 1350 6650
F 0 "#PWR01" H 1350 6500 50  0001 C CNN
F 1 "VAA" V 1350 6800 50  0000 L CNN
F 2 "" H 1350 6650 50  0001 C CNN
F 3 "" H 1350 6650 50  0001 C CNN
	1    1350 6650
	0    -1   -1   0   
$EndComp
Wire Wire Line
	1350 6650 1750 6650
$Comp
L power:+2V8 #PWR03
U 1 1 5EBA0C3E
P 1350 6750
F 0 "#PWR03" H 1350 6600 50  0001 C CNN
F 1 "+2V8" V 1350 6900 50  0000 L CNN
F 2 "" H 1350 6750 50  0001 C CNN
F 3 "" H 1350 6750 50  0001 C CNN
	1    1350 6750
	0    -1   -1   0   
$EndComp
Wire Wire Line
	1350 6750 1750 6750
$Comp
L power:VBUS #PWR04
U 1 1 5EBA1BD2
P 1350 6850
F 0 "#PWR04" H 1350 6700 50  0001 C CNN
F 1 "VBUS" V 1350 7000 50  0000 L CNN
F 2 "" H 1350 6850 50  0001 C CNN
F 3 "" H 1350 6850 50  0001 C CNN
	1    1350 6850
	0    -1   -1   0   
$EndComp
Wire Wire Line
	1350 6850 1750 6850
$Comp
L power:GND #PWR010
U 1 1 5EBA685A
P 2650 6950
F 0 "#PWR010" H 2650 6700 50  0001 C CNN
F 1 "GND" V 2650 6750 50  0000 C CNN
F 2 "" H 2650 6950 50  0001 C CNN
F 3 "" H 2650 6950 50  0001 C CNN
	1    2650 6950
	0    -1   -1   0   
$EndComp
$Comp
L power:GND #PWR06
U 1 1 5EBA7F5D
P 2650 6550
F 0 "#PWR06" H 2650 6300 50  0001 C CNN
F 1 "GND" V 2650 6400 50  0000 R CNN
F 2 "" H 2650 6550 50  0001 C CNN
F 3 "" H 2650 6550 50  0001 C CNN
	1    2650 6550
	0    -1   -1   0   
$EndComp
Text Notes 2800 6050 0    50   ~ 0
NFC1
Text Notes 2800 6150 0    50   ~ 0
NFC2
Text Notes 2800 6450 0    50   ~ 0
SWD_IO
Text Notes 2800 6350 0    50   ~ 0
SWD_CLK
Text Notes 2800 6250 0    50   ~ 0
SWD_SWO
Text Notes 1200 6450 2    50   ~ 0
RESET
Text Label 1750 6050 2    50   ~ 0
GPIO_A
Text Label 2250 6050 0    50   ~ 0
NFC1
Text Label 2250 6150 0    50   ~ 0
NFC2
Text Notes 2800 7050 0    50   ~ 0
CUSTOM
Text Label 2250 7050 0    50   ~ 0
CUSTOM_O
Text Label 2250 6450 0    50   ~ 0
GPIO_P
Text Label 2250 6350 0    50   ~ 0
GPIO_Q
Text Label 2250 6250 0    50   ~ 0
GPIO_R
Text Notes 1200 6350 2    50   ~ 0
CUSTOM
$Comp
L power:GND #PWR0103
U 1 1 5EBB294F
P 3850 6550
F 0 "#PWR0103" H 3850 6300 50  0001 C CNN
F 1 "GND" V 3850 6350 50  0000 C CNN
F 2 "" H 3850 6550 50  0001 C CNN
F 3 "" H 3850 6550 50  0001 C CNN
	1    3850 6550
	0    1    1    0   
$EndComp
Text Label 4250 7150 2    50   ~ 0
USB_D-
Text Label 4250 7050 2    50   ~ 0
USB_D+
Text Notes 5300 7450 0    50   ~ 0
SCLK
Text Notes 5300 7350 0    50   ~ 0
MISO
Text Notes 5300 7250 0    50   ~ 0
MOSI
Text Notes 5300 7150 0    50   ~ 0
SS
Text Notes 3700 7450 2    50   ~ 0
SCL
Text Notes 3700 7350 2    50   ~ 0
SDA
Text Notes 3700 6050 2    50   ~ 0
AIN
Text Notes 3700 6150 2    50   ~ 0
AIN
Text Notes 3700 6250 2    50   ~ 0
AIN
Wire Wire Line
	5150 6950 4750 6950
$Comp
L Connector_Generic:Conn_02x15_Counter_Clockwise B.J1
U 1 1 5EBB2965
P 4450 6750
F 0 "B.J1" H 4500 7667 50  0000 C CNN
F 1 "DF40P-30" H 4500 7576 50  0000 C CNN
F 2 "rayStack:Hirose_DF40_C_30DP_P0.4_Vertical" H 4450 6750 50  0001 C CNN
F 3 "~" H 4450 6750 50  0001 C CNN
	1    4450 6750
	1    0    0    -1  
$EndComp
Text Label 4250 6450 2    50   ~ 0
RESET
Text Label 4750 7250 0    50   ~ 0
GPIO_M
Text Label 4250 7250 2    50   ~ 0
GPIO_H
Text Label 4250 7350 2    50   ~ 0
GPIO_I
Text Label 4250 7450 2    50   ~ 0
GPIO_J
Text Label 4750 7450 0    50   ~ 0
GPIO_K
Text Label 4750 7350 0    50   ~ 0
GPIO_L
Text Label 4250 6150 2    50   ~ 0
GPIO_B
Text Label 4250 6250 2    50   ~ 0
GPIO_C
Text Label 4250 6350 2    50   ~ 0
CUSTOM_D
Text Label 4750 7150 0    50   ~ 0
GPIO_N
Wire Wire Line
	4750 6550 5150 6550
$Comp
L power:VBUS #PWR0104
U 1 1 5EBB297C
P 5150 6850
F 0 "#PWR0104" H 5150 6700 50  0001 C CNN
F 1 "VBUS" V 5150 7000 50  0000 L CNN
F 2 "" H 5150 6850 50  0001 C CNN
F 3 "" H 5150 6850 50  0001 C CNN
	1    5150 6850
	0    1    1    0   
$EndComp
Wire Wire Line
	5150 6850 4750 6850
$Comp
L power:+2V8 #PWR0105
U 1 1 5EBB2988
P 5150 6750
F 0 "#PWR0105" H 5150 6600 50  0001 C CNN
F 1 "+2V8" V 5150 6900 50  0000 L CNN
F 2 "" H 5150 6750 50  0001 C CNN
F 3 "" H 5150 6750 50  0001 C CNN
	1    5150 6750
	0    1    1    0   
$EndComp
Wire Wire Line
	5150 6750 4750 6750
$Comp
L power:VAA #PWR0106
U 1 1 5EBB2993
P 5150 6650
F 0 "#PWR0106" H 5150 6500 50  0001 C CNN
F 1 "VAA" V 5150 6800 50  0000 L CNN
F 2 "" H 5150 6650 50  0001 C CNN
F 3 "" H 5150 6650 50  0001 C CNN
	1    5150 6650
	0    1    1    0   
$EndComp
Wire Wire Line
	5150 6650 4750 6650
$Comp
L power:GND #PWR0107
U 1 1 5EBB299E
P 3850 6950
F 0 "#PWR0107" H 3850 6700 50  0001 C CNN
F 1 "GND" V 3850 6750 50  0000 C CNN
F 2 "" H 3850 6950 50  0001 C CNN
F 3 "" H 3850 6950 50  0001 C CNN
	1    3850 6950
	0    1    1    0   
$EndComp
$Comp
L power:VAA #PWR0108
U 1 1 5EBB29A8
P 3850 6650
F 0 "#PWR0108" H 3850 6500 50  0001 C CNN
F 1 "VAA" V 3850 6800 50  0000 L CNN
F 2 "" H 3850 6650 50  0001 C CNN
F 3 "" H 3850 6650 50  0001 C CNN
	1    3850 6650
	0    -1   -1   0   
$EndComp
$Comp
L power:+2V8 #PWR0109
U 1 1 5EBB29B3
P 3850 6750
F 0 "#PWR0109" H 3850 6600 50  0001 C CNN
F 1 "+2V8" V 3850 6900 50  0000 L CNN
F 2 "" H 3850 6750 50  0001 C CNN
F 3 "" H 3850 6750 50  0001 C CNN
	1    3850 6750
	0    -1   -1   0   
$EndComp
$Comp
L power:VBUS #PWR0110
U 1 1 5EBB29BE
P 3850 6850
F 0 "#PWR0110" H 3850 6700 50  0001 C CNN
F 1 "VBUS" V 3850 7000 50  0000 L CNN
F 2 "" H 3850 6850 50  0001 C CNN
F 3 "" H 3850 6850 50  0001 C CNN
	1    3850 6850
	0    -1   -1   0   
$EndComp
$Comp
L power:GND #PWR0111
U 1 1 5EBB29C9
P 5150 6950
F 0 "#PWR0111" H 5150 6700 50  0001 C CNN
F 1 "GND" V 5150 6750 50  0000 C CNN
F 2 "" H 5150 6950 50  0001 C CNN
F 3 "" H 5150 6950 50  0001 C CNN
	1    5150 6950
	0    -1   -1   0   
$EndComp
$Comp
L power:GND #PWR0112
U 1 1 5EBB29D3
P 5150 6550
F 0 "#PWR0112" H 5150 6300 50  0001 C CNN
F 1 "GND" V 5150 6400 50  0000 R CNN
F 2 "" H 5150 6550 50  0001 C CNN
F 3 "" H 5150 6550 50  0001 C CNN
	1    5150 6550
	0    -1   -1   0   
$EndComp
Text Notes 5300 6050 0    50   ~ 0
NFC1
Text Notes 5300 6150 0    50   ~ 0
NFC2
Text Notes 5300 6450 0    50   ~ 0
SWD_IO
Text Notes 5300 6350 0    50   ~ 0
SWD_CLK
Text Notes 5300 6250 0    50   ~ 0
SWD_SWO
Text Notes 3700 6450 2    50   ~ 0
RESET
Text Label 4250 6050 2    50   ~ 0
GPIO_A
Text Label 4750 6050 0    50   ~ 0
NFC1
Text Label 4750 6150 0    50   ~ 0
NFC2
Text Notes 5300 7050 0    50   ~ 0
CUSTOM
Text Label 4750 7050 0    50   ~ 0
CUSTOM_O
Text Label 4750 6450 0    50   ~ 0
GPIO_P
Text Label 4750 6350 0    50   ~ 0
GPIO_Q
Text Label 4750 6250 0    50   ~ 0
GPIO_R
Text Notes 3700 6350 2    50   ~ 0
CUSTOM
Wire Wire Line
	3850 6950 4250 6950
Wire Wire Line
	3850 6550 4250 6550
Wire Wire Line
	3850 6650 4250 6650
Wire Wire Line
	3850 6750 4250 6750
Wire Wire Line
	3850 6850 4250 6850
Wire Notes Line
	850  7600 850  5700
Wire Notes Line
	850  5700 5800 5700
Wire Notes Line
	5800 5700 5800 7600
Wire Notes Line
	5800 7600 850  7600
Text Notes 2900 5850 0    50   ~ 0
Stacking Sockets
$Comp
L rayStack:LSM303AGR U1
U 1 1 5DC75E09
P 2950 3650
F 0 "U1" H 2550 3150 50  0000 C CNN
F 1 "LSM303AGR" H 2550 3050 50  0000 C CNN
F 2 "Package_LGA:LGA-12_2x2mm_P0.5mm" H 2550 2950 50  0001 L CNN
F 3 "https://www.st.com/resource/en/datasheet/lsm303agr.pdf" H 3050 3000 50  0001 C CNN
F 4 "IMU" H 2950 3650 50  0001 C CNN "Description"
F 5 "LSM303AGRTR" H 2950 3650 50  0001 C CNN "MPN"
	1    2950 3650
	1    0    0    -1  
$EndComp
$Comp
L rayStack:BMG250 U2
U 1 1 5DC7A0B2
P 6350 3650
F 0 "U2" H 5900 3100 50  0000 C CNN
F 1 "BMG250" H 5900 3000 50  0000 C CNN
F 2 "Package_LGA:Bosch_LGA-14_3x2.5mm_P0.5mm" H 6350 3750 50  0001 C CNN
F 3 "https://ae-bst.resource.bosch.com/media/_tech/media/datasheets/BST-BMG250-DS000.pdf" H 6350 3750 50  0001 C CNN
F 4 "Gyroscope" H 6350 3650 50  0001 C CNN "Description"
F 5 "BMG250" H 6350 3650 50  0001 C CNN "MPN"
	1    6350 3650
	1    0    0    -1  
$EndComp
$Comp
L Device:C C1
U 1 1 5DC7EFE6
P 2700 2750
F 0 "C1" V 2448 2750 50  0000 C CNN
F 1 "100nF" V 2539 2750 50  0000 C CNN
F 2 "Capacitor_SMD:C_0603_1608Metric" H 2738 2600 50  0001 C CNN
F 3 "~" H 2700 2750 50  0001 C CNN
F 4 "Capacitor, X7R, ±5%" H 2700 2750 50  0001 C CNN "Description"
F 5 "C0603X104J4RECAUTO" H 2700 2750 50  0001 C CNN "MPN"
	1    2700 2750
	0    1    1    0   
$EndComp
$Comp
L Device:C C4
U 1 1 5DC7F841
P 3750 4100
F 0 "C4" H 3865 4146 50  0000 L CNN
F 1 "220nF" H 3865 4055 50  0000 L CNN
F 2 "Capacitor_SMD:C_0603_1608Metric" H 3788 3950 50  0001 C CNN
F 3 "~" H 3750 4100 50  0001 C CNN
F 4 "Capacitor, X7R, ±5%, ESR<200mOhm" H 3750 4100 50  0001 C CNN "Description"
F 5 "GCM188R71E224JA55D" H 3750 4100 50  0001 C CNN "MPN"
	1    3750 4100
	1    0    0    -1  
$EndComp
$Comp
L Device:C C2
U 1 1 5DC7FCC9
P 3300 2350
F 0 "C2" V 3048 2350 50  0000 C CNN
F 1 "10uF" V 3139 2350 50  0000 C CNN
F 2 "Capacitor_SMD:C_0603_1608Metric" H 3338 2200 50  0001 C CNN
F 3 "~" H 3300 2350 50  0001 C CNN
F 4 "Capacitor, X5R, ±20%" H 3300 2350 50  0001 C CNN "Description"
F 5 "JMK107ABJ106MAHT" H 3300 2350 50  0001 C CNN "MPN"
	1    3300 2350
	0    1    1    0   
$EndComp
$Comp
L Device:C C3
U 1 1 5DC80107
P 3300 2750
F 0 "C3" V 3048 2750 50  0000 C CNN
F 1 "100nF" V 3139 2750 50  0000 C CNN
F 2 "Capacitor_SMD:C_0603_1608Metric" H 3338 2600 50  0001 C CNN
F 3 "~" H 3300 2750 50  0001 C CNN
F 4 "Capacitor, X7R, ±5%" H 3300 2750 50  0001 C CNN "Description"
F 5 "C0603X104J4RECAUTO" H 3300 2750 50  0001 C CNN "MPN"
	1    3300 2750
	0    1    1    0   
$EndComp
$Comp
L power:GND #PWR0113
U 1 1 5DC84582
P 3550 2800
F 0 "#PWR0113" H 3550 2550 50  0001 C CNN
F 1 "GND" H 3555 2627 50  0000 C CNN
F 2 "" H 3550 2800 50  0001 C CNN
F 3 "" H 3550 2800 50  0001 C CNN
	1    3550 2800
	1    0    0    -1  
$EndComp
$Comp
L power:GND #PWR0114
U 1 1 5DC85917
P 2450 2800
F 0 "#PWR0114" H 2450 2550 50  0001 C CNN
F 1 "GND" H 2455 2627 50  0000 C CNN
F 2 "" H 2450 2800 50  0001 C CNN
F 3 "" H 2450 2800 50  0001 C CNN
	1    2450 2800
	1    0    0    -1  
$EndComp
Wire Wire Line
	3050 2350 3150 2350
Wire Wire Line
	3050 2750 3150 2750
Connection ~ 3050 2750
Wire Wire Line
	3050 2750 3050 2350
Wire Wire Line
	3450 2750 3550 2750
Wire Wire Line
	3550 2750 3550 2800
Wire Wire Line
	3450 2350 3550 2350
Wire Wire Line
	3550 2350 3550 2750
Connection ~ 3550 2750
Wire Wire Line
	2950 3050 2950 2750
Wire Wire Line
	2950 2750 2850 2750
Wire Wire Line
	2550 2750 2450 2750
Wire Wire Line
	2450 2750 2450 2800
Wire Wire Line
	3050 2750 3050 3050
$Comp
L power:GND #PWR0115
U 1 1 5DC87D70
P 3050 4250
F 0 "#PWR0115" H 3050 4000 50  0001 C CNN
F 1 "GND" H 3055 4077 50  0000 C CNN
F 2 "" H 3050 4250 50  0001 C CNN
F 3 "" H 3050 4250 50  0001 C CNN
	1    3050 4250
	1    0    0    -1  
$EndComp
Wire Wire Line
	3050 4250 2950 4250
$Comp
L power:GND #PWR0116
U 1 1 5DC88512
P 3750 4250
F 0 "#PWR0116" H 3750 4000 50  0001 C CNN
F 1 "GND" H 3755 4077 50  0000 C CNN
F 2 "" H 3750 4250 50  0001 C CNN
F 3 "" H 3750 4250 50  0001 C CNN
	1    3750 4250
	1    0    0    -1  
$EndComp
Text Label 2150 3450 2    50   ~ 0
I2C_SCL
Wire Wire Line
	3650 3850 3750 3850
Wire Wire Line
	3750 3850 3750 3950
Text Label 2150 3550 2    50   ~ 0
I2C_SDA
$Comp
L power:VDD #PWR0117
U 1 1 5DC8A28D
P 1600 3550
F 0 "#PWR0117" H 1600 3400 50  0001 C CNN
F 1 "VDD" H 1617 3723 50  0000 C CNN
F 2 "" H 1600 3550 50  0001 C CNN
F 3 "" H 1600 3550 50  0001 C CNN
	1    1600 3550
	1    0    0    -1  
$EndComp
Wire Wire Line
	2250 3650 1600 3650
Wire Wire Line
	2250 3750 1600 3750
Wire Wire Line
	1600 3750 1600 3650
Connection ~ 1600 3650
Wire Wire Line
	1600 3550 1600 3650
$Comp
L power:VDD #PWR0118
U 1 1 5DC8B308
P 2950 2750
F 0 "#PWR0118" H 2950 2600 50  0001 C CNN
F 1 "VDD" H 2967 2923 50  0000 C CNN
F 2 "" H 2950 2750 50  0001 C CNN
F 3 "" H 2950 2750 50  0001 C CNN
	1    2950 2750
	1    0    0    -1  
$EndComp
Connection ~ 2950 2750
$Comp
L power:VDD #PWR0119
U 1 1 5DC8B827
P 3050 2350
F 0 "#PWR0119" H 3050 2200 50  0001 C CNN
F 1 "VDD" H 3067 2523 50  0000 C CNN
F 2 "" H 3050 2350 50  0001 C CNN
F 3 "" H 3050 2350 50  0001 C CNN
	1    3050 2350
	1    0    0    -1  
$EndComp
Connection ~ 3050 2350
Wire Wire Line
	2150 3450 2250 3450
Wire Wire Line
	2250 3550 2150 3550
Text Label 3750 3550 0    50   ~ 0
INT_M
Text Label 3750 3650 0    50   ~ 0
INT_A
Wire Wire Line
	3750 3650 3650 3650
Wire Wire Line
	3750 3550 3650 3550
NoConn ~ 3650 3450
NoConn ~ 5650 3350
NoConn ~ 5650 3450
NoConn ~ 7050 3450
NoConn ~ 7050 3750
NoConn ~ 7050 3850
Text Label 7150 3350 0    50   ~ 0
INT_G
Wire Wire Line
	7150 3350 7050 3350
$Comp
L Device:C C5
U 1 1 5DC8E896
P 6050 2750
F 0 "C5" V 5798 2750 50  0000 C CNN
F 1 "100nF" V 5889 2750 50  0000 C CNN
F 2 "Capacitor_SMD:C_0603_1608Metric" H 6088 2600 50  0001 C CNN
F 3 "~" H 6050 2750 50  0001 C CNN
F 4 "Capacitor, X7R, ±5%" H 6050 2750 50  0001 C CNN "Description"
F 5 "C0603X104J4RECAUTO" H 6050 2750 50  0001 C CNN "MPN"
	1    6050 2750
	0    1    1    0   
$EndComp
$Comp
L Device:C C6
U 1 1 5DC8FCA7
P 6650 2750
F 0 "C6" V 6398 2750 50  0000 C CNN
F 1 "100nF" V 6489 2750 50  0000 C CNN
F 2 "Capacitor_SMD:C_0603_1608Metric" H 6688 2600 50  0001 C CNN
F 3 "~" H 6650 2750 50  0001 C CNN
F 4 "Capacitor, X7R, ±5%" H 6650 2750 50  0001 C CNN "Description"
F 5 "C0603X104J4RECAUTO" H 6650 2750 50  0001 C CNN "MPN"
	1    6650 2750
	0    1    1    0   
$EndComp
$Comp
L power:GND #PWR014
U 1 1 5DC90B5E
P 6900 2750
F 0 "#PWR014" H 6900 2500 50  0001 C CNN
F 1 "GND" H 6905 2577 50  0000 C CNN
F 2 "" H 6900 2750 50  0001 C CNN
F 3 "" H 6900 2750 50  0001 C CNN
	1    6900 2750
	1    0    0    -1  
$EndComp
$Comp
L power:GND #PWR0120
U 1 1 5DC9163B
P 5800 2750
F 0 "#PWR0120" H 5800 2500 50  0001 C CNN
F 1 "GND" H 5805 2577 50  0000 C CNN
F 2 "" H 5800 2750 50  0001 C CNN
F 3 "" H 5800 2750 50  0001 C CNN
	1    5800 2750
	1    0    0    -1  
$EndComp
Wire Wire Line
	5800 2750 5900 2750
Wire Wire Line
	6900 2750 6800 2750
Wire Wire Line
	6500 2750 6400 2750
Wire Wire Line
	6400 2750 6400 3000
Wire Wire Line
	6200 2750 6300 2750
Wire Wire Line
	6300 2750 6300 3000
$Comp
L power:VDD #PWR011
U 1 1 5DC933C2
P 6300 2750
F 0 "#PWR011" H 6300 2600 50  0001 C CNN
F 1 "VDD" H 6317 2923 50  0000 C CNN
F 2 "" H 6300 2750 50  0001 C CNN
F 3 "" H 6300 2750 50  0001 C CNN
	1    6300 2750
	1    0    0    -1  
$EndComp
Connection ~ 6300 2750
$Comp
L power:VDD #PWR012
U 1 1 5DC93CB6
P 6400 2750
F 0 "#PWR012" H 6400 2600 50  0001 C CNN
F 1 "VDD" H 6417 2923 50  0000 C CNN
F 2 "" H 6400 2750 50  0001 C CNN
F 3 "" H 6400 2750 50  0001 C CNN
	1    6400 2750
	1    0    0    -1  
$EndComp
Connection ~ 6400 2750
$Comp
L power:VDD #PWR0121
U 1 1 5DC94228
P 5450 3650
F 0 "#PWR0121" H 5450 3500 50  0001 C CNN
F 1 "VDD" H 5467 3823 50  0000 C CNN
F 2 "" H 5450 3650 50  0001 C CNN
F 3 "" H 5450 3650 50  0001 C CNN
	1    5450 3650
	1    0    0    -1  
$EndComp
Wire Wire Line
	5450 3650 5650 3650
Text Label 5450 3750 2    50   ~ 0
I2C_SCL
Wire Wire Line
	5450 3750 5650 3750
Text Label 5450 3850 2    50   ~ 0
I2C_SDA
Wire Wire Line
	5450 3850 5650 3850
$Comp
L power:GND #PWR0122
U 1 1 5DC96427
P 5450 3950
F 0 "#PWR0122" H 5450 3700 50  0001 C CNN
F 1 "GND" H 5455 3777 50  0000 C CNN
F 2 "" H 5450 3950 50  0001 C CNN
F 3 "" H 5450 3950 50  0001 C CNN
	1    5450 3950
	1    0    0    -1  
$EndComp
Wire Wire Line
	5650 3950 5450 3950
$Comp
L power:GND #PWR013
U 1 1 5DC971E5
P 6400 4300
F 0 "#PWR013" H 6400 4050 50  0001 C CNN
F 1 "GND" H 6405 4127 50  0000 C CNN
F 2 "" H 6400 4300 50  0001 C CNN
F 3 "" H 6400 4300 50  0001 C CNN
	1    6400 4300
	1    0    0    -1  
$EndComp
Wire Wire Line
	6400 4300 6300 4300
$Comp
L power:GND #PWR0101
U 1 1 5DCA0958
P 9400 6050
F 0 "#PWR0101" H 9400 5800 50  0001 C CNN
F 1 "GND" H 9405 5877 50  0000 C CNN
F 2 "" H 9400 6050 50  0001 C CNN
F 3 "" H 9400 6050 50  0001 C CNN
	1    9400 6050
	1    0    0    -1  
$EndComp
Text Label 8750 2750 2    50   ~ 0
I2C_SCL
Text Label 8750 2850 2    50   ~ 0
I2C_SDA
$Comp
L Device:R_US R5
U 1 1 5DCA78A2
P 9400 2550
F 0 "R5" H 9468 2596 50  0000 L CNN
F 1 "1.65k" H 9468 2505 50  0000 L CNN
F 2 "Resistor_SMD:R_0603_1608Metric" V 9440 2540 50  0001 C CNN
F 3 "~" H 9400 2550 50  0001 C CNN
F 4 "Resistor, 62mW, ±5%" H 9400 2550 50  0001 C CNN "Description"
F 5 "ERJ-3EKF1651V" H 9400 2550 50  0001 C CNN "MPN"
	1    9400 2550
	1    0    0    -1  
$EndComp
$Comp
L Device:R_US R4
U 1 1 5DCA82A9
P 9000 2550
F 0 "R4" H 9068 2596 50  0000 L CNN
F 1 "1.65k" H 9068 2505 50  0000 L CNN
F 2 "Resistor_SMD:R_0603_1608Metric" V 9040 2540 50  0001 C CNN
F 3 "~" H 9000 2550 50  0001 C CNN
F 4 "Resistor, 62mW, ±5%" H 9000 2550 50  0001 C CNN "Description"
F 5 "ERJ-3EKF1651V" H 9000 2550 50  0001 C CNN "MPN"
	1    9000 2550
	1    0    0    -1  
$EndComp
Wire Wire Line
	8750 2850 9400 2850
Wire Wire Line
	8750 2750 9000 2750
Wire Wire Line
	9400 2700 9400 2850
Connection ~ 9400 2850
Wire Wire Line
	9400 2850 9750 2850
Wire Wire Line
	9000 2700 9000 2750
Connection ~ 9000 2750
Wire Wire Line
	9000 2750 9750 2750
Wire Wire Line
	9000 2350 9000 2400
Wire Wire Line
	9400 2400 9400 2350
$Comp
L power:VDD #PWR0102
U 1 1 5DCB56B1
P 9000 2350
F 0 "#PWR0102" H 9000 2200 50  0001 C CNN
F 1 "VDD" H 9017 2523 50  0000 C CNN
F 2 "" H 9000 2350 50  0001 C CNN
F 3 "" H 9000 2350 50  0001 C CNN
	1    9000 2350
	1    0    0    -1  
$EndComp
$Comp
L power:PWR_FLAG #FLG0101
U 1 1 5DCCEEA5
P 8650 6050
F 0 "#FLG0101" H 8650 6125 50  0001 C CNN
F 1 "PWR_FLAG" H 8650 6223 50  0000 C CNN
F 2 "" H 8650 6050 50  0001 C CNN
F 3 "~" H 8650 6050 50  0001 C CNN
	1    8650 6050
	1    0    0    -1  
$EndComp
$Comp
L power:PWR_FLAG #FLG0102
U 1 1 5DCD349A
P 9400 6050
F 0 "#FLG0102" H 9400 6125 50  0001 C CNN
F 1 "PWR_FLAG" H 9400 6223 50  0000 C CNN
F 2 "" H 9400 6050 50  0001 C CNN
F 3 "~" H 9400 6050 50  0001 C CNN
	1    9400 6050
	1    0    0    -1  
$EndComp
Connection ~ 6400 4300
Connection ~ 3050 4250
$Comp
L Device:R_US R1
U 1 1 5EC3A1E3
P 9150 3850
F 0 "R1" V 8945 3850 50  0000 C CNN
F 1 "0" V 9036 3850 50  0000 C CNN
F 2 "Resistor_SMD:R_0603_1608Metric" V 9190 3840 50  0001 C CNN
F 3 "~" H 9150 3850 50  0001 C CNN
F 4 "Resistor, Zero Ohm" H 9150 3850 50  0001 C CNN "Description"
	1    9150 3850
	0    1    1    0   
$EndComp
$Comp
L Device:R_US R2
U 1 1 5EC3B511
P 9150 4200
F 0 "R2" V 8945 4200 50  0000 C CNN
F 1 "0" V 9036 4200 50  0000 C CNN
F 2 "Resistor_SMD:R_0603_1608Metric" V 9190 4190 50  0001 C CNN
F 3 "~" H 9150 4200 50  0001 C CNN
F 4 "Resistor, Zero Ohm" H 9150 4200 50  0001 C CNN "Description"
	1    9150 4200
	0    1    1    0   
$EndComp
$Comp
L Device:R_US R3
U 1 1 5EC3BBC6
P 9150 4550
F 0 "R3" V 8945 4550 50  0000 C CNN
F 1 "0" V 9036 4550 50  0000 C CNN
F 2 "Resistor_SMD:R_0603_1608Metric" V 9190 4540 50  0001 C CNN
F 3 "~" H 9150 4550 50  0001 C CNN
F 4 "Resistor, Zero Ohm" H 9150 4550 50  0001 C CNN "Description"
	1    9150 4550
	0    1    1    0   
$EndComp
Text Label 9000 3850 2    50   ~ 0
INT_M
Text Label 9000 4550 2    50   ~ 0
INT_G
Text Label 9000 4200 2    50   ~ 0
INT_A
Text Label 9300 3850 0    50   ~ 0
GPIO_N
Text Label 9300 4550 0    50   ~ 0
GPIO_L
Text Label 9300 4200 0    50   ~ 0
GPIO_M
$Comp
L power:VDD #PWR0123
U 1 1 5EC48F40
P 9400 2350
F 0 "#PWR0123" H 9400 2200 50  0001 C CNN
F 1 "VDD" H 9417 2523 50  0000 C CNN
F 2 "" H 9400 2350 50  0001 C CNN
F 3 "" H 9400 2350 50  0001 C CNN
	1    9400 2350
	1    0    0    -1  
$EndComp
$Comp
L power:VDD #PWR0124
U 1 1 5EC5F562
P 8300 6050
F 0 "#PWR0124" H 8300 5900 50  0001 C CNN
F 1 "VDD" H 8317 6223 50  0000 C CNN
F 2 "" H 8300 6050 50  0001 C CNN
F 3 "" H 8300 6050 50  0001 C CNN
	1    8300 6050
	1    0    0    -1  
$EndComp
$Comp
L power:+2V8 #PWR0125
U 1 1 5EC5FDCD
P 7950 6050
F 0 "#PWR0125" H 7950 5900 50  0001 C CNN
F 1 "+2V8" H 7965 6223 50  0000 C CNN
F 2 "" H 7950 6050 50  0001 C CNN
F 3 "" H 7950 6050 50  0001 C CNN
	1    7950 6050
	1    0    0    -1  
$EndComp
Wire Wire Line
	7950 6050 8300 6050
Connection ~ 8300 6050
Wire Wire Line
	8300 6050 8650 6050
Text Label 9750 2850 0    50   ~ 0
GPIO_I
Text Label 9750 2750 0    50   ~ 0
GPIO_J
Wire Notes Line
	1050 4750 4550 4750
Wire Notes Line
	4550 4750 4550 1800
Wire Notes Line
	4550 1800 1050 1800
Wire Notes Line
	1050 1800 1050 4750
Wire Notes Line
	4800 4750 7800 4750
Wire Notes Line
	7800 4750 7800 1800
Wire Notes Line
	7800 1800 4800 1800
Wire Notes Line
	4800 1800 4800 4750
Wire Notes Line
	8050 1800 8050 3150
Wire Notes Line
	8050 3150 10400 3150
Wire Notes Line
	10400 3150 10400 1800
Wire Notes Line
	10400 1800 8050 1800
Wire Notes Line
	8050 4750 10400 4750
Wire Notes Line
	10400 4750 10400 3400
Wire Notes Line
	10400 3400 8050 3400
Wire Notes Line
	8050 3400 8050 4750
Text Notes 8150 3550 0    50   ~ 0
Interrupt Lines. Optional.
Text Notes 8150 1950 0    50   ~ 0
I2C Pullup. Optional.
Text Notes 4900 1950 0    50   ~ 0
Accelerometer
Text Notes 1150 1950 0    50   ~ 0
Magnetometer & Gyroscope
$EndSCHEMATC
