(module Cypress_AN91445_MIFA_2.4GHz_Right (layer F.Cu) (tedit 5EA02F28)
  (descr "Cypress AN91445 MIFA 2.4GHz, Right orientation, http://www.cypress.com/go/AN91445")
  (tags "pcb antenna 2.4")
  (attr virtual)
  (fp_text reference REF** (at 3.429 -8.128) (layer F.SilkS)
    (effects (font (size 1 1) (thickness 0.15)))
  )
  (fp_text value Cypress_AN91445_MIFA_2.4GHz_Right (at 3.429 2.032) (layer F.Fab)
    (effects (font (size 1 1) (thickness 0.15)))
  )
  (fp_poly (pts (xy 1.397 -3.302) (xy 2.032 -3.302) (xy 2.032 -7.112) (xy 3.683 -7.112)
    (xy 3.683 -3.302) (xy 4.318 -3.302) (xy 4.318 -7.112) (xy 5.969 -7.112)
    (xy 5.969 -3.302) (xy 6.604 -3.302) (xy 6.604 -7.112) (xy 10.795 -7.112)
    (xy 10.795 -6.604) (xy 7.112 -6.604) (xy 7.112 -2.794) (xy 5.461 -2.794)
    (xy 5.461 -6.604) (xy 4.826 -6.604) (xy 4.826 -2.794) (xy 3.175 -2.794)
    (xy 3.175 -6.604) (xy 2.54 -6.604) (xy 2.54 -2.794) (xy 0.889 -2.794)
    (xy 0.889 -6.604) (xy 0.254 -6.604) (xy 0.254 -1.27) (xy 6.9342 -1.27)
    (xy 6.9342 -0.762) (xy 0.254 -0.762) (xy 0.254 1.016) (xy -0.254 1.016)
    (xy -0.254 -7.112) (xy 1.397 -7.112)) (layer F.Cu) (width 0))
  (fp_line (start 1.143 -0.254) (end 1.143 -1.524) (layer Dwgs.User) (width 0.127))
  (fp_line (start 1.143 -1.524) (end 10.922 -1.524) (layer Dwgs.User) (width 0.127))
  (fp_line (start -1.27 -7.493) (end 11.176 -7.493) (layer F.CrtYd) (width 0.0508))
  (fp_line (start 11.176 -7.493) (end 11.176 1.016) (layer F.CrtYd) (width 0.0508))
  (fp_line (start 11.176 1.016) (end -1.27 1.016) (layer F.CrtYd) (width 0.0508))
  (fp_line (start -1.27 1.016) (end -1.27 -7.493) (layer F.CrtYd) (width 0.0508))
  (fp_line (start -1.016 0) (end 10.922 0) (layer Dwgs.User) (width 0.127))
  (fp_line (start 0 -0.381) (end 1.016 -0.381) (layer Cmts.User) (width 0.0508))
  (fp_text user "Bottom GND - 12 mils from 50Ω feed line" (at 1.27 -0.381) (layer Cmts.User)
    (effects (font (size 0.254 0.254) (thickness 0.0381)) (justify left))
  )
  (fp_line (start 0.762 -0.508) (end 1.016 -0.381) (layer Cmts.User) (width 0.0508))
  (fp_line (start 1.016 -0.381) (end 0.762 -0.254) (layer Cmts.User) (width 0.0508))
  (fp_line (start 0 -0.254) (end 0 -0.508) (layer Cmts.User) (width 0.0508))
  (fp_line (start 10.795 -7.239) (end 10.795 -6.477) (layer Dwgs.User) (width 0.127))
  (fp_text user "31 mils" (at 10.795 -6.223 90) (layer Cmts.User)
    (effects (font (size 0.254 0.254) (thickness 0.0381)) (justify right))
  )
  (fp_line (start 9.779 -7.239) (end 9.779 -6.477) (layer Dwgs.User) (width 0.127))
  (fp_line (start 6.477 -5.715) (end 7.239 -5.715) (layer Dwgs.User) (width 0.127))
  (fp_text user "47 mils" (at 9.779 -6.223 90) (layer Cmts.User)
    (effects (font (size 0.254 0.254) (thickness 0.0381)) (justify right))
  )
  (fp_text user "62 mils" (at 7.493 -5.715) (layer Cmts.User)
    (effects (font (size 0.254 0.254) (thickness 0.0381)) (justify left))
  )
  (fp_text user %R (at 3.429 -8.128) (layer F.Fab)
    (effects (font (size 1 1) (thickness 0.15)))
  )
  (pad 1 smd rect (at 0 0.508) (size 0.508 1.016) (layers F.Cu))
  (pad 2 thru_hole rect (at 6.6802 -1.016) (size 0.508 0.508) (drill 0.254) (layers *.Cu))
)
