EESchema Schematic File Version 4
EELAYER 30 0
EELAYER END
$Descr A4 11693 8268
encoding utf-8
Sheet 1 1
Title "rayStack Template"
Date ""
Rev "0.1"
Comp "Raytrails, Pvt."
Comment1 "Copyright (c) 2020. All rights reserved."
Comment2 "License: BSD"
Comment3 ""
Comment4 ""
$EndDescr
$Comp
L power:GND #PWR02
U 1 1 5E8979CA
P 1350 6550
F 0 "#PWR02" H 1350 6300 50  0001 C CNN
F 1 "GND" V 1350 6350 50  0000 C CNN
F 2 "" H 1350 6550 50  0001 C CNN
F 3 "" H 1350 6550 50  0001 C CNN
	1    1350 6550
	0    1    1    0   
$EndComp
Text Label 1750 7150 2    50   ~ 0
USB_D-
Text Label 1750 7050 2    50   ~ 0
USB_D+
Text Notes 2800 7450 0    50   ~ 0
SCLK
Text Notes 2800 7350 0    50   ~ 0
MISO
Text Notes 2800 7250 0    50   ~ 0
MOSI
Text Notes 2800 7150 0    50   ~ 0
SS
Text Notes 1200 7450 2    50   ~ 0
SCL
Text Notes 1200 7350 2    50   ~ 0
SDA
Text Notes 1200 6050 2    50   ~ 0
AIN
Text Notes 1200 6150 2    50   ~ 0
AIN
Text Notes 1200 6250 2    50   ~ 0
AIN
Wire Wire Line
	2650 6950 2250 6950
$Comp
L Connector_Generic:Conn_02x15_Counter_Clockwise F.J1
U 1 1 5E881662
P 1950 6750
F 0 "F.J1" H 2000 7667 50  0000 C CNN
F 1 "DF40S-30" H 2000 7576 50  0000 C CNN
F 2 "rayStack:Hirose_DF40_C_30DS_P0.4_Vertical" H 1950 6750 50  0001 C CNN
F 3 "~" H 1950 6750 50  0001 C CNN
	1    1950 6750
	1    0    0    -1  
$EndComp
Wire Wire Line
	1750 6950 1350 6950
Text Label 1750 6450 2    50   ~ 0
RESET
Text Label 2250 7250 0    50   ~ 0
GPIO_M
Text Label 1750 7250 2    50   ~ 0
GPIO_H
Text Label 1750 7350 2    50   ~ 0
GPIO_I
Text Label 1750 7450 2    50   ~ 0
GPIO_J
Text Label 2250 7450 0    50   ~ 0
GPIO_K
Text Label 2250 7350 0    50   ~ 0
GPIO_L
Text Label 1750 6150 2    50   ~ 0
GPIO_B
Text Label 1750 6250 2    50   ~ 0
GPIO_C
Text Label 1750 6350 2    50   ~ 0
CUSTOM_D
Text Label 2250 7150 0    50   ~ 0
GPIO_N
Wire Wire Line
	2250 6550 2650 6550
$Comp
L power:VBUS #PWR09
U 1 1 5EB8EE2F
P 2650 6850
F 0 "#PWR09" H 2650 6700 50  0001 C CNN
F 1 "VBUS" V 2650 7000 50  0000 L CNN
F 2 "" H 2650 6850 50  0001 C CNN
F 3 "" H 2650 6850 50  0001 C CNN
	1    2650 6850
	0    1    1    0   
$EndComp
Wire Wire Line
	2650 6850 2250 6850
Wire Wire Line
	1350 6550 1750 6550
$Comp
L power:+2V8 #PWR08
U 1 1 5EB91478
P 2650 6750
F 0 "#PWR08" H 2650 6600 50  0001 C CNN
F 1 "+2V8" V 2650 6900 50  0000 L CNN
F 2 "" H 2650 6750 50  0001 C CNN
F 3 "" H 2650 6750 50  0001 C CNN
	1    2650 6750
	0    1    1    0   
$EndComp
Wire Wire Line
	2650 6750 2250 6750
$Comp
L power:VAA #PWR07
U 1 1 5EB92D5F
P 2650 6650
F 0 "#PWR07" H 2650 6500 50  0001 C CNN
F 1 "VAA" V 2650 6800 50  0000 L CNN
F 2 "" H 2650 6650 50  0001 C CNN
F 3 "" H 2650 6650 50  0001 C CNN
	1    2650 6650
	0    1    1    0   
$EndComp
Wire Wire Line
	2650 6650 2250 6650
$Comp
L power:GND #PWR05
U 1 1 5EB9F4B4
P 1350 6950
F 0 "#PWR05" H 1350 6700 50  0001 C CNN
F 1 "GND" V 1350 6750 50  0000 C CNN
F 2 "" H 1350 6950 50  0001 C CNN
F 3 "" H 1350 6950 50  0001 C CNN
	1    1350 6950
	0    1    1    0   
$EndComp
$Comp
L power:VAA #PWR01
U 1 1 5EB9FBB2
P 1350 6650
F 0 "#PWR01" H 1350 6500 50  0001 C CNN
F 1 "VAA" V 1350 6800 50  0000 L CNN
F 2 "" H 1350 6650 50  0001 C CNN
F 3 "" H 1350 6650 50  0001 C CNN
	1    1350 6650
	0    -1   -1   0   
$EndComp
Wire Wire Line
	1350 6650 1750 6650
$Comp
L power:+2V8 #PWR03
U 1 1 5EBA0C3E
P 1350 6750
F 0 "#PWR03" H 1350 6600 50  0001 C CNN
F 1 "+2V8" V 1350 6900 50  0000 L CNN
F 2 "" H 1350 6750 50  0001 C CNN
F 3 "" H 1350 6750 50  0001 C CNN
	1    1350 6750
	0    -1   -1   0   
$EndComp
Wire Wire Line
	1350 6750 1750 6750
$Comp
L power:VBUS #PWR04
U 1 1 5EBA1BD2
P 1350 6850
F 0 "#PWR04" H 1350 6700 50  0001 C CNN
F 1 "VBUS" V 1350 7000 50  0000 L CNN
F 2 "" H 1350 6850 50  0001 C CNN
F 3 "" H 1350 6850 50  0001 C CNN
	1    1350 6850
	0    -1   -1   0   
$EndComp
Wire Wire Line
	1350 6850 1750 6850
$Comp
L power:GND #PWR010
U 1 1 5EBA685A
P 2650 6950
F 0 "#PWR010" H 2650 6700 50  0001 C CNN
F 1 "GND" V 2650 6750 50  0000 C CNN
F 2 "" H 2650 6950 50  0001 C CNN
F 3 "" H 2650 6950 50  0001 C CNN
	1    2650 6950
	0    -1   -1   0   
$EndComp
$Comp
L power:GND #PWR06
U 1 1 5EBA7F5D
P 2650 6550
F 0 "#PWR06" H 2650 6300 50  0001 C CNN
F 1 "GND" V 2650 6400 50  0000 R CNN
F 2 "" H 2650 6550 50  0001 C CNN
F 3 "" H 2650 6550 50  0001 C CNN
	1    2650 6550
	0    -1   -1   0   
$EndComp
Text Notes 2800 6050 0    50   ~ 0
NFC1
Text Notes 2800 6150 0    50   ~ 0
NFC2
Text Notes 2800 6450 0    50   ~ 0
SWD_IO
Text Notes 2800 6350 0    50   ~ 0
SWD_CLK
Text Notes 2800 6250 0    50   ~ 0
SWD_SWO
Text Notes 1200 6450 2    50   ~ 0
RESET
Text Label 1750 6050 2    50   ~ 0
GPIO_A
Text Label 2250 6050 0    50   ~ 0
NFC1
Text Label 2250 6150 0    50   ~ 0
NFC2
Text Notes 2800 7050 0    50   ~ 0
CUSTOM
Text Label 2250 7050 0    50   ~ 0
CUSTOM_O
Text Label 2250 6450 0    50   ~ 0
GPIO_P
Text Label 2250 6350 0    50   ~ 0
GPIO_Q
Text Label 2250 6250 0    50   ~ 0
GPIO_R
Text Notes 1200 6350 2    50   ~ 0
CUSTOM
$Comp
L power:GND #PWR?
U 1 1 5EBB294F
P 3850 6550
F 0 "#PWR?" H 3850 6300 50  0001 C CNN
F 1 "GND" V 3850 6350 50  0000 C CNN
F 2 "" H 3850 6550 50  0001 C CNN
F 3 "" H 3850 6550 50  0001 C CNN
	1    3850 6550
	0    1    1    0   
$EndComp
Text Label 4250 7150 2    50   ~ 0
USB_D-
Text Label 4250 7050 2    50   ~ 0
USB_D+
Text Notes 5300 7450 0    50   ~ 0
SCLK
Text Notes 5300 7350 0    50   ~ 0
MISO
Text Notes 5300 7250 0    50   ~ 0
MOSI
Text Notes 5300 7150 0    50   ~ 0
SS
Text Notes 3700 7450 2    50   ~ 0
SCL
Text Notes 3700 7350 2    50   ~ 0
SDA
Text Notes 3700 6050 2    50   ~ 0
AIN
Text Notes 3700 6150 2    50   ~ 0
AIN
Text Notes 3700 6250 2    50   ~ 0
AIN
Wire Wire Line
	5150 6950 4750 6950
$Comp
L Connector_Generic:Conn_02x15_Counter_Clockwise B.J1
U 1 1 5EBB2965
P 4450 6750
F 0 "B.J1" H 4500 7667 50  0000 C CNN
F 1 "DF40P-30" H 4500 7576 50  0000 C CNN
F 2 "rayStack:Hirose_DF40_C_30DP_P0.4_Vertical" H 4450 6750 50  0001 C CNN
F 3 "~" H 4450 6750 50  0001 C CNN
	1    4450 6750
	1    0    0    -1  
$EndComp
Text Label 4250 6450 2    50   ~ 0
RESET
Text Label 4750 7250 0    50   ~ 0
GPIO_M
Text Label 4250 7250 2    50   ~ 0
GPIO_H
Text Label 4250 7350 2    50   ~ 0
GPIO_I
Text Label 4250 7450 2    50   ~ 0
GPIO_J
Text Label 4750 7450 0    50   ~ 0
GPIO_K
Text Label 4750 7350 0    50   ~ 0
GPIO_L
Text Label 4250 6150 2    50   ~ 0
GPIO_B
Text Label 4250 6250 2    50   ~ 0
GPIO_C
Text Label 4250 6350 2    50   ~ 0
CUSTOM_D
Text Label 4750 7150 0    50   ~ 0
GPIO_N
Wire Wire Line
	4750 6550 5150 6550
$Comp
L power:VBUS #PWR?
U 1 1 5EBB297C
P 5150 6850
F 0 "#PWR?" H 5150 6700 50  0001 C CNN
F 1 "VBUS" V 5150 7000 50  0000 L CNN
F 2 "" H 5150 6850 50  0001 C CNN
F 3 "" H 5150 6850 50  0001 C CNN
	1    5150 6850
	0    1    1    0   
$EndComp
Wire Wire Line
	5150 6850 4750 6850
$Comp
L power:+2V8 #PWR?
U 1 1 5EBB2988
P 5150 6750
F 0 "#PWR?" H 5150 6600 50  0001 C CNN
F 1 "+2V8" V 5150 6900 50  0000 L CNN
F 2 "" H 5150 6750 50  0001 C CNN
F 3 "" H 5150 6750 50  0001 C CNN
	1    5150 6750
	0    1    1    0   
$EndComp
Wire Wire Line
	5150 6750 4750 6750
$Comp
L power:VAA #PWR?
U 1 1 5EBB2993
P 5150 6650
F 0 "#PWR?" H 5150 6500 50  0001 C CNN
F 1 "VAA" V 5150 6800 50  0000 L CNN
F 2 "" H 5150 6650 50  0001 C CNN
F 3 "" H 5150 6650 50  0001 C CNN
	1    5150 6650
	0    1    1    0   
$EndComp
Wire Wire Line
	5150 6650 4750 6650
$Comp
L power:GND #PWR?
U 1 1 5EBB299E
P 3850 6950
F 0 "#PWR?" H 3850 6700 50  0001 C CNN
F 1 "GND" V 3850 6750 50  0000 C CNN
F 2 "" H 3850 6950 50  0001 C CNN
F 3 "" H 3850 6950 50  0001 C CNN
	1    3850 6950
	0    1    1    0   
$EndComp
$Comp
L power:VAA #PWR?
U 1 1 5EBB29A8
P 3850 6650
F 0 "#PWR?" H 3850 6500 50  0001 C CNN
F 1 "VAA" V 3850 6800 50  0000 L CNN
F 2 "" H 3850 6650 50  0001 C CNN
F 3 "" H 3850 6650 50  0001 C CNN
	1    3850 6650
	0    -1   -1   0   
$EndComp
$Comp
L power:+2V8 #PWR?
U 1 1 5EBB29B3
P 3850 6750
F 0 "#PWR?" H 3850 6600 50  0001 C CNN
F 1 "+2V8" V 3850 6900 50  0000 L CNN
F 2 "" H 3850 6750 50  0001 C CNN
F 3 "" H 3850 6750 50  0001 C CNN
	1    3850 6750
	0    -1   -1   0   
$EndComp
$Comp
L power:VBUS #PWR?
U 1 1 5EBB29BE
P 3850 6850
F 0 "#PWR?" H 3850 6700 50  0001 C CNN
F 1 "VBUS" V 3850 7000 50  0000 L CNN
F 2 "" H 3850 6850 50  0001 C CNN
F 3 "" H 3850 6850 50  0001 C CNN
	1    3850 6850
	0    -1   -1   0   
$EndComp
$Comp
L power:GND #PWR?
U 1 1 5EBB29C9
P 5150 6950
F 0 "#PWR?" H 5150 6700 50  0001 C CNN
F 1 "GND" V 5150 6750 50  0000 C CNN
F 2 "" H 5150 6950 50  0001 C CNN
F 3 "" H 5150 6950 50  0001 C CNN
	1    5150 6950
	0    -1   -1   0   
$EndComp
$Comp
L power:GND #PWR?
U 1 1 5EBB29D3
P 5150 6550
F 0 "#PWR?" H 5150 6300 50  0001 C CNN
F 1 "GND" V 5150 6400 50  0000 R CNN
F 2 "" H 5150 6550 50  0001 C CNN
F 3 "" H 5150 6550 50  0001 C CNN
	1    5150 6550
	0    -1   -1   0   
$EndComp
Text Notes 5300 6050 0    50   ~ 0
NFC1
Text Notes 5300 6150 0    50   ~ 0
NFC2
Text Notes 5300 6450 0    50   ~ 0
SWD_IO
Text Notes 5300 6350 0    50   ~ 0
SWD_CLK
Text Notes 5300 6250 0    50   ~ 0
SWD_SWO
Text Notes 3700 6450 2    50   ~ 0
RESET
Text Label 4250 6050 2    50   ~ 0
GPIO_A
Text Label 4750 6050 0    50   ~ 0
NFC1
Text Label 4750 6150 0    50   ~ 0
NFC2
Text Notes 5300 7050 0    50   ~ 0
CUSTOM
Text Label 4750 7050 0    50   ~ 0
CUSTOM_O
Text Label 4750 6450 0    50   ~ 0
GPIO_P
Text Label 4750 6350 0    50   ~ 0
GPIO_Q
Text Label 4750 6250 0    50   ~ 0
GPIO_R
Text Notes 3700 6350 2    50   ~ 0
CUSTOM
Wire Wire Line
	3850 6950 4250 6950
Wire Wire Line
	3850 6550 4250 6550
Wire Wire Line
	3850 6650 4250 6650
Wire Wire Line
	3850 6750 4250 6750
Wire Wire Line
	3850 6850 4250 6850
Wire Notes Line
	850  7600 850  5700
Wire Notes Line
	850  5700 5800 5700
Wire Notes Line
	5800 5700 5800 7600
Wire Notes Line
	5800 7600 850  7600
Text Notes 2900 5850 0    50   ~ 0
Stacking Sockets
$EndSCHEMATC
