EESchema Schematic File Version 4
EELAYER 30 0
EELAYER END
$Descr A4 11693 8268
encoding utf-8
Sheet 1 1
Title "rayStack nRF52832 QFN48, Monopole"
Date ""
Rev "0.1"
Comp "Raytrails, Pvt."
Comment1 "Copyright (c) 2020. All rights reserved."
Comment2 "License: BSD"
Comment3 ""
Comment4 ""
$EndDescr
$Comp
L power:GND #PWR02
U 1 1 5E8979CA
P 1350 6550
F 0 "#PWR02" H 1350 6300 50  0001 C CNN
F 1 "GND" V 1350 6350 50  0000 C CNN
F 2 "" H 1350 6550 50  0001 C CNN
F 3 "" H 1350 6550 50  0001 C CNN
	1    1350 6550
	0    1    1    0   
$EndComp
Text Label 1750 7150 2    50   ~ 0
USB_D-
Text Label 1750 7050 2    50   ~ 0
USB_D+
Text Notes 2800 7450 0    50   ~ 0
SCLK
Text Notes 2800 7350 0    50   ~ 0
MISO
Text Notes 2800 7250 0    50   ~ 0
MOSI
Text Notes 2800 7150 0    50   ~ 0
SS
Text Notes 1200 7450 2    50   ~ 0
SCL
Text Notes 1200 7350 2    50   ~ 0
SDA
Text Notes 1200 6050 2    50   ~ 0
AIN
Text Notes 1200 6150 2    50   ~ 0
AIN
Text Notes 1200 6250 2    50   ~ 0
AIN
Wire Wire Line
	2650 6950 2250 6950
$Comp
L Connector_Generic:Conn_02x15_Counter_Clockwise F.J1
U 1 1 5E881662
P 1950 6750
F 0 "F.J1" H 2000 7667 50  0000 C CNN
F 1 "DF40S-30" H 2000 7576 50  0000 C CNN
F 2 "rayStack:Hirose_DF40_C_30DS_P0.4_Vertical" H 1950 6750 50  0001 C CNN
F 3 "~" H 1950 6750 50  0001 C CNN
	1    1950 6750
	1    0    0    -1  
$EndComp
Wire Wire Line
	1750 6950 1350 6950
Text Label 1750 6450 2    50   ~ 0
RESET
Text Label 2250 7250 0    50   ~ 0
GPIO_M
Text Label 1750 7250 2    50   ~ 0
GPIO_H
Text Label 1750 7350 2    50   ~ 0
GPIO_I
Text Label 1750 7450 2    50   ~ 0
GPIO_J
Text Label 2250 7450 0    50   ~ 0
GPIO_K
Text Label 2250 7350 0    50   ~ 0
GPIO_L
Text Label 1750 6150 2    50   ~ 0
GPIO_B
Text Label 1750 6250 2    50   ~ 0
GPIO_C
Text Label 1750 6350 2    50   ~ 0
CUSTOM_D
Text Label 2250 7150 0    50   ~ 0
GPIO_N
Wire Wire Line
	2250 6550 2650 6550
$Comp
L power:VBUS #PWR09
U 1 1 5EB8EE2F
P 2650 6850
F 0 "#PWR09" H 2650 6700 50  0001 C CNN
F 1 "VBUS" V 2650 7000 50  0000 L CNN
F 2 "" H 2650 6850 50  0001 C CNN
F 3 "" H 2650 6850 50  0001 C CNN
	1    2650 6850
	0    1    1    0   
$EndComp
Wire Wire Line
	2650 6850 2250 6850
Wire Wire Line
	1350 6550 1750 6550
$Comp
L power:+2V8 #PWR08
U 1 1 5EB91478
P 2650 6750
F 0 "#PWR08" H 2650 6600 50  0001 C CNN
F 1 "+2V8" V 2650 6900 50  0000 L CNN
F 2 "" H 2650 6750 50  0001 C CNN
F 3 "" H 2650 6750 50  0001 C CNN
	1    2650 6750
	0    1    1    0   
$EndComp
Wire Wire Line
	2650 6750 2250 6750
$Comp
L power:VAA #PWR07
U 1 1 5EB92D5F
P 2650 6650
F 0 "#PWR07" H 2650 6500 50  0001 C CNN
F 1 "VAA" V 2650 6800 50  0000 L CNN
F 2 "" H 2650 6650 50  0001 C CNN
F 3 "" H 2650 6650 50  0001 C CNN
	1    2650 6650
	0    1    1    0   
$EndComp
Wire Wire Line
	2650 6650 2250 6650
$Comp
L power:GND #PWR05
U 1 1 5EB9F4B4
P 1350 6950
F 0 "#PWR05" H 1350 6700 50  0001 C CNN
F 1 "GND" V 1350 6750 50  0000 C CNN
F 2 "" H 1350 6950 50  0001 C CNN
F 3 "" H 1350 6950 50  0001 C CNN
	1    1350 6950
	0    1    1    0   
$EndComp
$Comp
L power:VAA #PWR01
U 1 1 5EB9FBB2
P 1350 6650
F 0 "#PWR01" H 1350 6500 50  0001 C CNN
F 1 "VAA" V 1350 6800 50  0000 L CNN
F 2 "" H 1350 6650 50  0001 C CNN
F 3 "" H 1350 6650 50  0001 C CNN
	1    1350 6650
	0    -1   -1   0   
$EndComp
Wire Wire Line
	1350 6650 1750 6650
$Comp
L power:+2V8 #PWR03
U 1 1 5EBA0C3E
P 1350 6750
F 0 "#PWR03" H 1350 6600 50  0001 C CNN
F 1 "+2V8" V 1350 6900 50  0000 L CNN
F 2 "" H 1350 6750 50  0001 C CNN
F 3 "" H 1350 6750 50  0001 C CNN
	1    1350 6750
	0    -1   -1   0   
$EndComp
Wire Wire Line
	1350 6750 1750 6750
$Comp
L power:VBUS #PWR04
U 1 1 5EBA1BD2
P 1350 6850
F 0 "#PWR04" H 1350 6700 50  0001 C CNN
F 1 "VBUS" V 1350 7000 50  0000 L CNN
F 2 "" H 1350 6850 50  0001 C CNN
F 3 "" H 1350 6850 50  0001 C CNN
	1    1350 6850
	0    -1   -1   0   
$EndComp
$Comp
L power:GND #PWR010
U 1 1 5EBA685A
P 2650 6950
F 0 "#PWR010" H 2650 6700 50  0001 C CNN
F 1 "GND" V 2650 6750 50  0000 C CNN
F 2 "" H 2650 6950 50  0001 C CNN
F 3 "" H 2650 6950 50  0001 C CNN
	1    2650 6950
	0    -1   -1   0   
$EndComp
$Comp
L power:GND #PWR06
U 1 1 5EBA7F5D
P 2650 6550
F 0 "#PWR06" H 2650 6300 50  0001 C CNN
F 1 "GND" V 2650 6400 50  0000 R CNN
F 2 "" H 2650 6550 50  0001 C CNN
F 3 "" H 2650 6550 50  0001 C CNN
	1    2650 6550
	0    -1   -1   0   
$EndComp
Text Notes 2800 6050 0    50   ~ 0
NFC1
Text Notes 2800 6150 0    50   ~ 0
NFC2
Text Notes 2800 6450 0    50   ~ 0
SWD_IO
Text Notes 2800 6350 0    50   ~ 0
SWD_CLK
Text Notes 2800 6250 0    50   ~ 0
SWD_SWO
Text Notes 1200 6450 2    50   ~ 0
RESET
Text Label 1750 6050 2    50   ~ 0
GPIO_A
Text Notes 2800 7050 0    50   ~ 0
CUSTOM
Text Label 2250 7050 0    50   ~ 0
CUSTOM_O
Text Notes 1200 6350 2    50   ~ 0
CUSTOM
$Comp
L power:GND #PWR0101
U 1 1 5EBB294F
P 3850 6550
F 0 "#PWR0101" H 3850 6300 50  0001 C CNN
F 1 "GND" V 3850 6350 50  0000 C CNN
F 2 "" H 3850 6550 50  0001 C CNN
F 3 "" H 3850 6550 50  0001 C CNN
	1    3850 6550
	0    1    1    0   
$EndComp
Text Label 4250 7150 2    50   ~ 0
USB_D-
Text Label 4250 7050 2    50   ~ 0
USB_D+
Text Notes 5300 7450 0    50   ~ 0
SCLK
Text Notes 5300 7350 0    50   ~ 0
MISO
Text Notes 5300 7250 0    50   ~ 0
MOSI
Text Notes 5300 7150 0    50   ~ 0
SS
Text Notes 3700 7450 2    50   ~ 0
SCL
Text Notes 3700 7350 2    50   ~ 0
SDA
Text Notes 3700 6050 2    50   ~ 0
AIN
Text Notes 3700 6150 2    50   ~ 0
AIN
Text Notes 3700 6250 2    50   ~ 0
AIN
Wire Wire Line
	5150 6950 4750 6950
$Comp
L Connector_Generic:Conn_02x15_Counter_Clockwise B.J1
U 1 1 5EBB2965
P 4450 6750
F 0 "B.J1" H 4500 7667 50  0000 C CNN
F 1 "DF40P-30" H 4500 7576 50  0000 C CNN
F 2 "rayStack:Hirose_DF40_C_30DP_P0.4_Vertical" H 4450 6750 50  0001 C CNN
F 3 "~" H 4450 6750 50  0001 C CNN
	1    4450 6750
	1    0    0    -1  
$EndComp
Text Label 4250 6450 2    50   ~ 0
RESET
Text Label 4750 7250 0    50   ~ 0
GPIO_M
Text Label 4250 7250 2    50   ~ 0
GPIO_H
Text Label 4250 7350 2    50   ~ 0
GPIO_I
Text Label 4250 7450 2    50   ~ 0
GPIO_J
Text Label 4750 7450 0    50   ~ 0
GPIO_K
Text Label 4750 7350 0    50   ~ 0
GPIO_L
Text Label 4250 6150 2    50   ~ 0
GPIO_B
Text Label 4250 6250 2    50   ~ 0
GPIO_C
Text Label 4250 6350 2    50   ~ 0
CUSTOM_D
Text Label 4750 7150 0    50   ~ 0
GPIO_N
Wire Wire Line
	4750 6550 5150 6550
$Comp
L power:VBUS #PWR0102
U 1 1 5EBB297C
P 5150 6850
F 0 "#PWR0102" H 5150 6700 50  0001 C CNN
F 1 "VBUS" V 5150 7000 50  0000 L CNN
F 2 "" H 5150 6850 50  0001 C CNN
F 3 "" H 5150 6850 50  0001 C CNN
	1    5150 6850
	0    1    1    0   
$EndComp
Wire Wire Line
	5150 6850 4750 6850
$Comp
L power:+2V8 #PWR0103
U 1 1 5EBB2988
P 5150 6750
F 0 "#PWR0103" H 5150 6600 50  0001 C CNN
F 1 "+2V8" V 5150 6900 50  0000 L CNN
F 2 "" H 5150 6750 50  0001 C CNN
F 3 "" H 5150 6750 50  0001 C CNN
	1    5150 6750
	0    1    1    0   
$EndComp
Wire Wire Line
	5150 6750 4750 6750
$Comp
L power:VAA #PWR0104
U 1 1 5EBB2993
P 5150 6650
F 0 "#PWR0104" H 5150 6500 50  0001 C CNN
F 1 "VAA" V 5150 6800 50  0000 L CNN
F 2 "" H 5150 6650 50  0001 C CNN
F 3 "" H 5150 6650 50  0001 C CNN
	1    5150 6650
	0    1    1    0   
$EndComp
Wire Wire Line
	5150 6650 4750 6650
$Comp
L power:GND #PWR0105
U 1 1 5EBB299E
P 3850 6950
F 0 "#PWR0105" H 3850 6700 50  0001 C CNN
F 1 "GND" V 3850 6750 50  0000 C CNN
F 2 "" H 3850 6950 50  0001 C CNN
F 3 "" H 3850 6950 50  0001 C CNN
	1    3850 6950
	0    1    1    0   
$EndComp
$Comp
L power:VAA #PWR0106
U 1 1 5EBB29A8
P 3850 6650
F 0 "#PWR0106" H 3850 6500 50  0001 C CNN
F 1 "VAA" V 3850 6800 50  0000 L CNN
F 2 "" H 3850 6650 50  0001 C CNN
F 3 "" H 3850 6650 50  0001 C CNN
	1    3850 6650
	0    -1   -1   0   
$EndComp
$Comp
L power:+2V8 #PWR0107
U 1 1 5EBB29B3
P 3850 6750
F 0 "#PWR0107" H 3850 6600 50  0001 C CNN
F 1 "+2V8" V 3850 6900 50  0000 L CNN
F 2 "" H 3850 6750 50  0001 C CNN
F 3 "" H 3850 6750 50  0001 C CNN
	1    3850 6750
	0    -1   -1   0   
$EndComp
$Comp
L power:VBUS #PWR0108
U 1 1 5EBB29BE
P 3850 6850
F 0 "#PWR0108" H 3850 6700 50  0001 C CNN
F 1 "VBUS" V 3850 7000 50  0000 L CNN
F 2 "" H 3850 6850 50  0001 C CNN
F 3 "" H 3850 6850 50  0001 C CNN
	1    3850 6850
	0    -1   -1   0   
$EndComp
$Comp
L power:GND #PWR0109
U 1 1 5EBB29C9
P 5150 6950
F 0 "#PWR0109" H 5150 6700 50  0001 C CNN
F 1 "GND" V 5150 6750 50  0000 C CNN
F 2 "" H 5150 6950 50  0001 C CNN
F 3 "" H 5150 6950 50  0001 C CNN
	1    5150 6950
	0    -1   -1   0   
$EndComp
$Comp
L power:GND #PWR0110
U 1 1 5EBB29D3
P 5150 6550
F 0 "#PWR0110" H 5150 6300 50  0001 C CNN
F 1 "GND" V 5150 6400 50  0000 R CNN
F 2 "" H 5150 6550 50  0001 C CNN
F 3 "" H 5150 6550 50  0001 C CNN
	1    5150 6550
	0    -1   -1   0   
$EndComp
Text Notes 5300 6050 0    50   ~ 0
NFC1
Text Notes 5300 6150 0    50   ~ 0
NFC2
Text Notes 5300 6450 0    50   ~ 0
SWD_IO
Text Notes 5300 6350 0    50   ~ 0
SWD_CLK
Text Notes 5300 6250 0    50   ~ 0
SWD_SWO
Text Notes 3700 6450 2    50   ~ 0
RESET
Text Label 4250 6050 2    50   ~ 0
GPIO_A
Text Notes 5300 7050 0    50   ~ 0
CUSTOM
Text Label 4750 7050 0    50   ~ 0
CUSTOM_O
Text Label 4750 6450 0    50   ~ 0
SWDIO
Text Label 4750 6350 0    50   ~ 0
SWDCLK
Text Label 4750 6250 0    50   ~ 0
SWDSWO
Text Notes 3700 6350 2    50   ~ 0
CUSTOM
Wire Wire Line
	3850 6950 4250 6950
Wire Wire Line
	3850 6550 4250 6550
Wire Wire Line
	3850 6650 4250 6650
Wire Wire Line
	3850 6750 4250 6750
Wire Wire Line
	3850 6850 4250 6850
Wire Notes Line
	850  7600 850  5700
Wire Notes Line
	850  5700 5800 5700
Wire Notes Line
	5800 5700 5800 7600
Wire Notes Line
	5800 7600 850  7600
Text Notes 2900 5850 0    50   ~ 0
Stacking Sockets
NoConn ~ 6250 4400
Text Notes 3050 1400 2    50   Italic 0
optional
Wire Wire Line
	7100 1600 7400 1600
$Comp
L power:VDD #PWR0111
U 1 1 5D294175
P 7100 1600
F 0 "#PWR0111" H 7100 1450 50  0001 C CNN
F 1 "VDD" H 7117 1773 50  0000 C CNN
F 2 "" H 7100 1600 50  0001 C CNN
F 3 "" H 7100 1600 50  0001 C CNN
	1    7100 1600
	1    0    0    -1  
$EndComp
$Comp
L power:GND #PWR0112
U 1 1 5D2936EC
P 7400 1900
F 0 "#PWR0112" H 7400 1650 50  0001 C CNN
F 1 "GND" H 7405 1727 50  0000 C CNN
F 2 "" H 7400 1900 50  0001 C CNN
F 3 "" H 7400 1900 50  0001 C CNN
	1    7400 1900
	1    0    0    -1  
$EndComp
$Comp
L Device:C C8
U 1 1 5D292A82
P 7400 1750
F 0 "C8" H 7515 1796 50  0000 L CNN
F 1 "100nF" H 7515 1705 50  0000 L CNN
F 2 "Capacitor_SMD:C_0402_1005Metric" H 7438 1600 50  0001 C CNN
F 3 "~" H 7400 1750 50  0001 C CNN
F 4 "Capacitor, X7R, ±10%" H 7400 1750 50  0001 C CNN "Description"
F 5 "GCM155R71C104KA55J" H 7400 1750 50  0001 C CNN "MFN"
	1    7400 1750
	1    0    0    -1  
$EndComp
Wire Wire Line
	5550 1650 5550 2200
$Comp
L power:GND #PWR018
U 1 1 5D0E9EC1
P 4400 4750
F 0 "#PWR018" H 4400 4500 50  0001 C CNN
F 1 "GND" H 4405 4577 50  0000 C CNN
F 2 "" H 4400 4750 50  0001 C CNN
F 3 "" H 4400 4750 50  0001 C CNN
	1    4400 4750
	1    0    0    -1  
$EndComp
NoConn ~ 6150 2200
NoConn ~ 6900 3450
NoConn ~ 6900 3550
NoConn ~ 6900 3650
NoConn ~ 6150 4400
Wire Wire Line
	6900 3050 8550 3050
Wire Wire Line
	7800 1600 8300 1600
Connection ~ 9050 1850
Wire Wire Line
	9050 1850 9050 2200
Wire Wire Line
	8300 2000 8300 2200
Wire Wire Line
	9050 1600 9050 1850
Wire Wire Line
	8500 1850 9050 1850
Wire Wire Line
	8300 1600 8300 1700
Wire Notes Line
	1600 1250 3150 1250
Wire Notes Line
	1600 2350 3150 2350
Wire Notes Line
	3150 1250 3150 2350
Wire Notes Line
	1600 2350 1600 1250
Connection ~ 2300 1600
Wire Wire Line
	3050 1600 2300 1600
Wire Wire Line
	3050 2850 3050 1600
Wire Wire Line
	4700 2850 3050 2850
Connection ~ 2300 2100
Wire Wire Line
	2950 2950 4700 2950
Wire Wire Line
	2950 2100 2950 2950
Wire Wire Line
	2300 2100 2950 2100
Connection ~ 1700 2100
$Comp
L power:GND #PWR0113
U 1 1 5D2A65C6
P 1700 2100
F 0 "#PWR0113" H 1700 1850 50  0001 C CNN
F 1 "GND" H 1705 1927 50  0000 C CNN
F 2 "" H 1700 2100 50  0001 C CNN
F 3 "" H 1700 2100 50  0001 C CNN
	1    1700 2100
	1    0    0    -1  
$EndComp
Wire Wire Line
	1700 2100 1850 2100
Wire Wire Line
	1700 1600 1700 2100
Wire Wire Line
	1850 1600 1700 1600
Wire Wire Line
	2300 2100 2150 2100
Wire Wire Line
	2300 2000 2300 2100
Wire Wire Line
	2300 1600 2300 1700
Wire Wire Line
	2150 1600 2300 1600
$Comp
L Device:C C12
U 1 1 5D297328
P 2000 2100
F 0 "C12" V 1748 2100 50  0000 C CNN
F 1 "12pF" V 1839 2100 50  0000 C CNN
F 2 "Capacitor_SMD:C_0402_1005Metric" H 2038 1950 50  0001 C CNN
F 3 "~" H 2000 2100 50  0001 C CNN
F 4 "Capacitor, NP0, ±2%" H 2000 2100 50  0001 C CNN "Description"
F 5 "GCM1555C1H120GA16D" H 2000 2100 50  0001 C CNN "MFN"
	1    2000 2100
	0    1    1    0   
$EndComp
$Comp
L Device:C C11
U 1 1 5D296235
P 2000 1600
F 0 "C11" V 1748 1600 50  0000 C CNN
F 1 "12pF" V 1839 1600 50  0000 C CNN
F 2 "Capacitor_SMD:C_0402_1005Metric" H 2038 1450 50  0001 C CNN
F 3 "~" H 2000 1600 50  0001 C CNN
F 4 "Capacitor, NP0, ±2%" H 2000 1600 50  0001 C CNN "Description"
F 5 "GCM1555C1H120GA16D" H 2000 1600 50  0001 C CNN "MFN"
	1    2000 1600
	0    1    1    0   
$EndComp
$Comp
L Device:Crystal Y2
U 1 1 5D295513
P 2300 1850
F 0 "Y2" V 2254 1981 50  0000 L CNN
F 1 "32.768kHz" V 2345 1981 50  0000 L CNN
F 2 "Crystal:Crystal_SMD_2012-2Pin_2.0x1.2mm" H 2300 1850 50  0001 C CNN
F 3 "~" H 2300 1850 50  0001 C CNN
F 4 "XTAL SMD 2012, 32.768 kHz, CI=9 pF, ±50 ppm" H 2300 1850 50  0001 C CNN "Description"
F 5 "ECS-.327-9-12-TR" H 2300 1850 50  0001 C CNN "MFN"
	1    2300 1850
	0    1    1    0   
$EndComp
Wire Wire Line
	5250 2200 5250 1500
Wire Wire Line
	4600 1700 4600 2750
Wire Wire Line
	5450 1350 5450 2200
Wire Wire Line
	4600 1700 4050 1700
Wire Wire Line
	4700 2750 4600 2750
Wire Wire Line
	6900 3350 8300 3350
Wire Wire Line
	8050 3250 8050 4050
Wire Wire Line
	6900 3250 8050 3250
$Comp
L power:VDD #PWR0114
U 1 1 5D0ECBD8
P 3550 1500
F 0 "#PWR0114" H 3550 1350 50  0001 C CNN
F 1 "VDD" H 3567 1673 50  0000 C CNN
F 2 "" H 3550 1500 50  0001 C CNN
F 3 "" H 3550 1500 50  0001 C CNN
	1    3550 1500
	1    0    0    -1  
$EndComp
$Comp
L power:VDD #PWR017
U 1 1 5D0EA9A6
P 4400 4450
F 0 "#PWR017" H 4400 4300 50  0001 C CNN
F 1 "VDD" H 4417 4623 50  0000 C CNN
F 2 "" H 4400 4450 50  0001 C CNN
F 3 "" H 4400 4450 50  0001 C CNN
	1    4400 4450
	1    0    0    -1  
$EndComp
$Comp
L Device:C C5
U 1 1 5D0E90AC
P 4400 4600
F 0 "C5" H 4515 4646 50  0000 L CNN
F 1 "100nF" H 4515 4555 50  0000 L CNN
F 2 "Capacitor_SMD:C_0402_1005Metric" H 4438 4450 50  0001 C CNN
F 3 "~" H 4400 4600 50  0001 C CNN
F 4 "Capacitor, X7R, ±10%" H 4400 4600 50  0001 C CNN "Description"
F 5 "GCM155R71C104KA55J" H 4400 4600 50  0001 C CNN "MFN"
	1    4400 4600
	1    0    0    -1  
$EndComp
Connection ~ 8300 4050
Wire Wire Line
	8300 4050 8050 4050
Connection ~ 8300 3750
Wire Wire Line
	8300 3350 8300 3750
$Comp
L power:GND #PWR016
U 1 1 5D0E5125
P 8300 4050
F 0 "#PWR016" H 8300 3800 50  0001 C CNN
F 1 "GND" H 8305 3877 50  0000 C CNN
F 2 "" H 8300 4050 50  0001 C CNN
F 3 "" H 8300 4050 50  0001 C CNN
	1    8300 4050
	1    0    0    -1  
$EndComp
$Comp
L Device:C C3
U 1 1 5D0E2D7D
P 8300 3900
F 0 "C3" H 8415 3946 50  0000 L CNN
F 1 "0.8pF" H 8415 3855 50  0000 L CNN
F 2 "Capacitor_SMD:C_0402_1005Metric" H 8338 3750 50  0001 C CNN
F 3 "~" H 8300 3900 50  0001 C CNN
F 4 "Capacitor, NP0, ±5%" H 8300 3900 50  0001 C CNN "Description"
F 5 "GCQ1555C1HR80WB01D" H 8300 3900 50  0001 C CNN "MFN"
	1    8300 3900
	1    0    0    -1  
$EndComp
$Comp
L Device:L L1
U 1 1 5D0DD713
P 8450 3750
F 0 "L1" V 8640 3750 50  0000 C CNN
F 1 "3.9nH" V 8549 3750 50  0000 C CNN
F 2 "Inductor_SMD:L_0402_1005Metric" H 8450 3750 50  0001 C CNN
F 3 "~" H 8450 3750 50  0001 C CNN
F 4 "High frequency chip inductor ±5%" H 8450 3750 50  0001 C CNN "Description"
F 5 "MLG1005S3N9CTD25" H 8450 3750 50  0001 C CNN "MFN"
	1    8450 3750
	0    -1   -1   0   
$EndComp
Wire Wire Line
	8550 2700 8550 3050
Wire Wire Line
	8650 2700 8550 2700
Wire Wire Line
	9050 2700 9050 3150
Wire Wire Line
	8950 2700 9050 2700
$Comp
L Device:C C7
U 1 1 5D0D3035
P 8800 2700
F 0 "C7" V 8548 2700 50  0000 C CNN
F 1 "100pF" V 8639 2700 50  0000 C CNN
F 2 "Capacitor_SMD:C_0402_1005Metric" H 8838 2550 50  0001 C CNN
F 3 "~" H 8800 2700 50  0001 C CNN
F 4 "Capacitor, NP0, ±5%" H 8800 2700 50  0001 C CNN "Description"
F 5 "GCM1555C1H101JA16D" H 8800 2700 50  0001 C CNN "MFN"
	1    8800 2700
	0    1    1    0   
$EndComp
$Comp
L Device:C C6
U 1 1 5D0CEAEB
P 8800 3150
F 0 "C6" V 8548 3150 50  0000 C CNN
F 1 "N.C." V 8639 3150 50  0000 C CNN
F 2 "Capacitor_SMD:C_0402_1005Metric" H 8838 3000 50  0001 C CNN
F 3 "~" H 8800 3150 50  0001 C CNN
F 4 "Capacitor, NON MOUNTABLE" H 8800 3150 50  0001 C CNN "Description"
F 5 "~" H 8800 3150 50  0001 C CNN "MFN"
	1    8800 3150
	0    1    1    0   
$EndComp
Wire Wire Line
	8300 2200 8300 2950
Wire Wire Line
	7800 2850 7800 1600
Wire Wire Line
	6900 2850 7800 2850
Connection ~ 9050 3150
Wire Wire Line
	8950 3150 9050 3150
$Comp
L power:GND #PWR012
U 1 1 5D0D445D
P 9050 3150
F 0 "#PWR012" H 9050 2900 50  0001 C CNN
F 1 "GND" H 9055 2977 50  0000 C CNN
F 2 "" H 9050 3150 50  0001 C CNN
F 3 "" H 9050 3150 50  0001 C CNN
	1    9050 3150
	1    0    0    -1  
$EndComp
Wire Wire Line
	6900 3150 8650 3150
Connection ~ 8300 1600
Connection ~ 8300 2200
Wire Wire Line
	6900 2950 8300 2950
Wire Wire Line
	8650 2200 8300 2200
Wire Wire Line
	8650 1600 8300 1600
Connection ~ 9050 2200
Wire Wire Line
	8950 2200 9050 2200
Wire Wire Line
	8950 1600 9050 1600
$Comp
L power:GND #PWR0115
U 1 1 5D0C6EAC
P 9050 2200
F 0 "#PWR0115" H 9050 1950 50  0001 C CNN
F 1 "GND" H 9055 2027 50  0000 C CNN
F 2 "" H 9050 2200 50  0001 C CNN
F 3 "" H 9050 2200 50  0001 C CNN
	1    9050 2200
	1    0    0    -1  
$EndComp
$Comp
L Device:C C1
U 1 1 5D0C5EF6
P 8800 2200
F 0 "C1" V 8548 2200 50  0000 C CNN
F 1 "12pF" V 8639 2200 50  0000 C CNN
F 2 "Capacitor_SMD:C_0402_1005Metric" H 8838 2050 50  0001 C CNN
F 3 "~" H 8800 2200 50  0001 C CNN
F 4 "Capacitor, NP0, ±2%" H 8800 2200 50  0001 C CNN "Description"
F 5 "GCM1555C1H120GA16D" H 8800 2200 50  0001 C CNN "MFN"
	1    8800 2200
	0    1    1    0   
$EndComp
$Comp
L Device:C C2
U 1 1 5D0C4588
P 8800 1600
F 0 "C2" V 8548 1600 50  0000 C CNN
F 1 "12pF" V 8639 1600 50  0000 C CNN
F 2 "Capacitor_SMD:C_0402_1005Metric" H 8838 1450 50  0001 C CNN
F 3 "~" H 8800 1600 50  0001 C CNN
F 4 "Capacitor, NP0, ±2%" H 8800 1600 50  0001 C CNN "Description"
F 5 "GCM1555C1H120GA16D" H 8800 1600 50  0001 C CNN "MFN"
	1    8800 1600
	0    1    1    0   
$EndComp
$Comp
L Device:Crystal_GND24 Y1
U 1 1 5D0C2FA6
P 8300 1850
F 0 "Y1" V 8450 2100 50  0000 L CNN
F 1 "32MHz" V 8350 2050 50  0000 L CNN
F 2 "Crystal:Crystal_SMD_2016-4Pin_2.0x1.6mm" H 8300 1850 50  0001 C CNN
F 3 "~" H 8300 1850 50  0001 C CNN
F 4 "XTAL SMD 2016, 32 MHz, Cl=8 pF, total tol. ±40 ppm" H 8300 1850 50  0001 C CNN "Description"
F 5 "CX2016DB32000D0WZRC1 " H 8300 1850 50  0001 C CNN "MFN"
	1    8300 1850
	0    -1   -1   0   
$EndComp
$Comp
L Device:C C4
U 1 1 5D0B9FBB
P 4050 1850
F 0 "C4" H 4165 1896 50  0000 L CNN
F 1 "100nF" H 4165 1805 50  0000 L CNN
F 2 "Capacitor_SMD:C_0402_1005Metric" H 4088 1700 50  0001 C CNN
F 3 "~" H 4050 1850 50  0001 C CNN
F 4 "Capacitor, X7R, ±10%" H 4050 1850 50  0001 C CNN "Description"
F 5 "GCM155R71C104KA55J" H 4050 1850 50  0001 C CNN "MFN"
	1    4050 1850
	1    0    0    -1  
$EndComp
$Comp
L power:GND #PWR0116
U 1 1 5D0B98E4
P 4050 2000
F 0 "#PWR0116" H 4050 1750 50  0001 C CNN
F 1 "GND" H 4055 1827 50  0000 C CNN
F 2 "" H 4050 2000 50  0001 C CNN
F 3 "" H 4050 2000 50  0001 C CNN
	1    4050 2000
	1    0    0    -1  
$EndComp
$Comp
L power:GND #PWR0117
U 1 1 5D0B9147
P 3550 2000
F 0 "#PWR0117" H 3550 1750 50  0001 C CNN
F 1 "GND" H 3555 1827 50  0000 C CNN
F 2 "" H 3550 2000 50  0001 C CNN
F 3 "" H 3550 2000 50  0001 C CNN
	1    3550 2000
	1    0    0    -1  
$EndComp
Connection ~ 5950 1650
$Comp
L power:GND #PWR0118
U 1 1 5D0B6A06
P 5950 1650
F 0 "#PWR0118" H 5950 1400 50  0001 C CNN
F 1 "GND" H 5955 1477 50  0000 C CNN
F 2 "" H 5950 1650 50  0001 C CNN
F 3 "" H 5950 1650 50  0001 C CNN
	1    5950 1650
	1    0    0    -1  
$EndComp
$Comp
L Device:C C10
U 1 1 5D0B1F19
P 5950 1500
F 0 "C10" H 6065 1546 50  0000 L CNN
F 1 "1.0uF" H 6065 1455 50  0000 L CNN
F 2 "Capacitor_SMD:C_0402_1005Metric" H 5988 1350 50  0001 C CNN
F 3 "~" H 5950 1500 50  0001 C CNN
F 4 "Capacitor, X5R, ±5%" H 5950 1500 50  0001 C CNN "Description"
F 5 "GRT155R61E105KE01D" H 5950 1500 50  0001 C CNN "MFN"
	1    5950 1500
	1    0    0    -1  
$EndComp
$Comp
L Device:C C9
U 1 1 5D0B0658
P 3550 1850
F 0 "C9" H 3665 1896 50  0000 L CNN
F 1 "4.7uF" H 3665 1805 50  0000 L CNN
F 2 "Capacitor_SMD:C_0603_1608Metric" H 3588 1700 50  0001 C CNN
F 3 "~" H 3550 1850 50  0001 C CNN
F 4 "Capacitor, X5R, ±10%" H 3550 1850 50  0001 C CNN "Description"
F 5 "LMK107BJ475KAHT" H 3550 1850 50  0001 C CNN "MFN"
	1    3550 1850
	1    0    0    -1  
$EndComp
$Comp
L Device:L L3
U 1 1 5D382232
P 5800 1200
F 0 "L3" V 5990 1200 50  0000 C CNN
F 1 "15nH" V 5899 1200 50  0000 C CNN
F 2 "Inductor_SMD:L_0402_1005Metric" H 5800 1200 50  0001 C CNN
F 3 "~" H 5800 1200 50  0001 C CNN
F 4 "High frequency chip inductor ±10%" H 5800 1200 50  0001 C CNN "Description"
F 5 "MLK1005S15NJTD25" H 5800 1200 50  0001 C CNN "MFN"
	1    5800 1200
	0    1    -1   0   
$EndComp
$Comp
L Device:L L2
U 1 1 5D3818B4
P 5500 1200
F 0 "L2" V 5690 1200 50  0000 C CNN
F 1 "10uH" V 5599 1200 50  0000 C CNN
F 2 "Inductor_SMD:L_0603_1608Metric" H 5500 1200 50  0001 C CNN
F 3 "~" H 5500 1200 50  0001 C CNN
F 4 "Chip inductor, IDC,min = 50 mA, ±20%" H 5500 1200 50  0001 C CNN "Description"
F 5 "KLZ1608MHR100WTD25" H 5500 1200 50  0001 C CNN "MFN"
	1    5500 1200
	0    1    -1   0   
$EndComp
Wire Wire Line
	5350 1200 5350 2200
Wire Wire Line
	5950 1200 5950 1350
Connection ~ 5950 1350
Wire Wire Line
	5450 1350 5950 1350
Wire Wire Line
	5550 1650 5950 1650
$Comp
L power:GND #PWR030
U 1 1 5D2DCADC
P 6750 1650
F 0 "#PWR030" H 6750 1400 50  0001 C CNN
F 1 "GND" H 6755 1477 50  0000 C CNN
F 2 "" H 6750 1650 50  0001 C CNN
F 3 "" H 6750 1650 50  0001 C CNN
	1    6750 1650
	1    0    0    -1  
$EndComp
$Comp
L rayStack:nRF52832_QFxx U1
U 1 1 5D0AC7D4
P 5800 3300
F 0 "U1" H 5800 3350 50  0000 C CNN
F 1 "nRF52832_QFxx" H 5800 3250 50  0000 C CNN
F 2 "Package_DFN_QFN:QFN-48-1EP_6x6mm_P0.4mm_EP4.6x4.6mm" H 5800 1750 50  0001 C CNN
F 3 "https://infocenter.nordicsemi.com/pdf/nRF52832_PS_v1.4.pdf" H 5800 3400 50  0001 C CNN
F 4 "SoC, nRF52832 QFxx QFN48" H 5800 3300 50  0001 C CNN "Description"
F 5 "nRF52832-QFAA" H 5800 3300 50  0001 C CNN "MFN"
	1    5800 3300
	1    0    0    -1  
$EndComp
Wire Wire Line
	6900 2750 7100 2750
Wire Wire Line
	7100 2750 7100 1600
Connection ~ 7100 1600
Wire Wire Line
	3550 1500 3550 1700
Wire Wire Line
	5250 1500 3550 1500
Connection ~ 3550 1500
Wire Wire Line
	5250 4400 5250 4450
Wire Wire Line
	5250 4450 4400 4450
Connection ~ 4400 4450
Wire Wire Line
	6250 2200 6250 1650
Wire Wire Line
	6250 1650 6350 1650
Wire Wire Line
	6350 1650 6350 2200
Connection ~ 6350 1650
Wire Wire Line
	6350 1650 6750 1650
Wire Wire Line
	1350 6850 1750 6850
Text Label 6900 3750 0    50   ~ 0
SWDIO
Text Label 6900 3850 0    50   ~ 0
SWDCLK
Text Label 6350 4700 3    50   ~ 0
RESET
Text Label 6050 4400 3    50   ~ 0
SWDSWO
Text Label 4700 3250 2    50   ~ 0
GPIO_A
Text Label 4700 3150 2    50   ~ 0
GPIO_B
Text Label 4700 3050 2    50   ~ 0
GPIO_C
Text Label 4700 3850 2    50   ~ 0
NFC1
Text Label 4700 3750 2    50   ~ 0
NFC2
Text Label 5550 4400 3    50   ~ 0
GPIO_H
Text Label 5450 4400 3    50   ~ 0
GPIO_I
Text Label 5350 4400 3    50   ~ 0
GPIO_J
Text Label 5850 4400 3    50   ~ 0
GPIO_K
$Comp
L power:+2V8 #PWR0119
U 1 1 5EBFF58C
P 9000 5800
F 0 "#PWR0119" H 9000 5650 50  0001 C CNN
F 1 "+2V8" H 9015 5973 50  0000 C CNN
F 2 "" H 9000 5800 50  0001 C CNN
F 3 "" H 9000 5800 50  0001 C CNN
	1    9000 5800
	1    0    0    -1  
$EndComp
$Comp
L power:VDD #PWR0120
U 1 1 5EC00B37
P 9500 5800
F 0 "#PWR0120" H 9500 5650 50  0001 C CNN
F 1 "VDD" H 9517 5973 50  0000 C CNN
F 2 "" H 9500 5800 50  0001 C CNN
F 3 "" H 9500 5800 50  0001 C CNN
	1    9500 5800
	1    0    0    -1  
$EndComp
Wire Wire Line
	9500 5800 9500 5950
Wire Wire Line
	9000 5950 9000 5800
$Comp
L power:PWR_FLAG #FLG0101
U 1 1 5EC04A6C
P 10000 5800
F 0 "#FLG0101" H 10000 5875 50  0001 C CNN
F 1 "PWR_FLAG" H 10000 5973 50  0000 C CNN
F 2 "" H 10000 5800 50  0001 C CNN
F 3 "~" H 10000 5800 50  0001 C CNN
	1    10000 5800
	1    0    0    -1  
$EndComp
Text Label 2250 6450 0    50   ~ 0
SWDIO
Text Label 2250 6350 0    50   ~ 0
SWDCLK
Text Label 2250 6250 0    50   ~ 0
SWDSWO
Wire Wire Line
	10000 5800 10000 5950
Wire Wire Line
	10000 5950 9500 5950
Connection ~ 9500 5950
Wire Wire Line
	9000 5950 9500 5950
$Comp
L power:PWR_FLAG #FLG0102
U 1 1 5EC27E53
P 10500 5800
F 0 "#FLG0102" H 10500 5875 50  0001 C CNN
F 1 "PWR_FLAG" H 10500 5973 50  0000 C CNN
F 2 "" H 10500 5800 50  0001 C CNN
F 3 "~" H 10500 5800 50  0001 C CNN
	1    10500 5800
	1    0    0    -1  
$EndComp
$Comp
L power:GND #PWR0121
U 1 1 5EC2809B
P 10500 5800
F 0 "#PWR0121" H 10500 5550 50  0001 C CNN
F 1 "GND" H 10505 5627 50  0000 C CNN
F 2 "" H 10500 5800 50  0001 C CNN
F 3 "" H 10500 5800 50  0001 C CNN
	1    10500 5800
	1    0    0    -1  
$EndComp
Text Notes 9400 3700 0    50   ~ 0
2.45GHz\nmonopole
$Comp
L power:GND #PWR031
U 1 1 5D2DA674
P 9050 4050
F 0 "#PWR031" H 9050 3800 50  0001 C CNN
F 1 "GND" H 9055 3877 50  0000 C CNN
F 2 "" H 9050 4050 50  0001 C CNN
F 3 "" H 9050 4050 50  0001 C CNN
	1    9050 4050
	1    0    0    -1  
$EndComp
$Comp
L Device:C C15
U 1 1 5D2CA668
P 9050 3900
F 0 "C15" H 9165 3946 50  0000 L CNN
F 1 "N.C." H 9165 3855 50  0000 L CNN
F 2 "Capacitor_SMD:C_0402_1005Metric" H 9088 3750 50  0001 C CNN
F 3 "~" H 9050 3900 50  0001 C CNN
F 4 "Capacitor, NP0, ±5%" H 9050 3900 50  0001 C CNN "Description"
F 5 "" H 9050 3900 50  0001 C CNN "MFN"
	1    9050 3900
	1    0    0    -1  
$EndComp
Wire Wire Line
	9050 3750 8600 3750
Text Label 4750 6150 0    50   ~ 0
NFC2
Text Label 4750 6050 0    50   ~ 0
NFC1
Text Label 2250 6150 0    50   ~ 0
NFC2
Text Label 2250 6050 0    50   ~ 0
NFC1
NoConn ~ 4700 3450
NoConn ~ 4700 3550
NoConn ~ 4700 3650
Text Label 5750 4400 3    50   ~ 0
GPIO_L
Text Label 5650 4400 3    50   ~ 0
GPIO_M
Text Label 4700 3350 2    50   ~ 0
GPIO_N
$Comp
L power:GND #PWR0123
U 1 1 5EC9A797
P 8050 2200
F 0 "#PWR0123" H 8050 1950 50  0001 C CNN
F 1 "GND" H 8055 2027 50  0000 C CNN
F 2 "" H 8050 2200 50  0001 C CNN
F 3 "" H 8050 2200 50  0001 C CNN
	1    8050 2200
	1    0    0    -1  
$EndComp
Wire Wire Line
	8050 1850 8050 2200
Wire Wire Line
	8100 1850 8050 1850
Wire Wire Line
	9050 3750 9800 3750
$Comp
L Device:R_US R1
U 1 1 5EDA3D15
P 8050 5900
F 0 "R1" H 8118 5946 50  0000 L CNN
F 1 "2k" H 8118 5855 50  0000 L CNN
F 2 "Resistor_SMD:R_0402_1005Metric" V 8090 5890 50  0001 C CNN
F 3 "~" H 8050 5900 50  0001 C CNN
	1    8050 5900
	1    0    0    -1  
$EndComp
$Comp
L power:VDD #PWR013
U 1 1 5EDB0D7C
P 8050 5450
F 0 "#PWR013" H 8050 5300 50  0001 C CNN
F 1 "VDD" H 8067 5623 50  0000 C CNN
F 2 "" H 8050 5450 50  0001 C CNN
F 3 "" H 8050 5450 50  0001 C CNN
	1    8050 5450
	1    0    0    -1  
$EndComp
$Comp
L Device:LED D1
U 1 1 5EDCA82F
P 8050 5600
F 0 "D1" V 8089 5483 50  0000 R CNN
F 1 "LED" V 7998 5483 50  0000 R CNN
F 2 "LED_SMD:LED_0402_1005Metric" H 8050 5600 50  0001 C CNN
F 3 "~" H 8050 5600 50  0001 C CNN
	1    8050 5600
	0    -1   -1   0   
$EndComp
$Comp
L Connector:TestPoint_Alt TP1
U 1 1 5EDDFB14
P 6500 4600
F 0 "TP1" H 6558 4718 50  0000 L CNN
F 1 "RESET" H 6558 4627 50  0000 L CNN
F 2 "TestPoint:TestPoint_Pad_1.0x1.0mm" H 6700 4600 50  0001 C CNN
F 3 "~" H 6700 4600 50  0001 C CNN
	1    6500 4600
	1    0    0    -1  
$EndComp
Wire Wire Line
	6350 4400 6350 4600
Wire Wire Line
	6500 4600 6350 4600
Connection ~ 6350 4600
Wire Wire Line
	6350 4600 6350 4700
Text Label 8050 6050 3    50   ~ 0
LED
Text Label 5950 4400 3    50   ~ 0
LED
Wire Notes Line
	8700 6300 8700 5100
Wire Notes Line
	8700 5100 10950 5100
Wire Notes Line
	10950 5100 10950 6300
Wire Notes Line
	10950 6300 8700 6300
Wire Notes Line
	7750 5100 7750 6300
Wire Notes Line
	7750 6300 8450 6300
Wire Notes Line
	8450 6300 8450 5100
Wire Notes Line
	8450 5100 7750 5100
Connection ~ 9050 3750
NoConn ~ 5750 2200
NoConn ~ 5850 2200
NoConn ~ 5950 2200
NoConn ~ 6050 2200
$EndSCHEMATC
